<?xml version="1.0" standalone="no"?>
<!DOCTYPE svg PUBLIC "-//W3C//DTD SVG 1.1//EN" "http://www.w3.org/Graphics/SVG/1.1/DTD/svg11.dtd" >
<svg xmlns="http://www.w3.org/2000/svg" xmlns:xlink="http://www.w3.org/1999/xlink" version="1.1">
<metadata>
Created by FontForge 20170910 at Fri May 27 22:26:54 2016
 By Jimmy Wärting
Schoolbook Style
</metadata>
<defs>
<font id="ProximaNova-Regular" horiz-adv-x="1171" >
  <font-face 
    font-family="Proxima Nova"
    font-weight="400"
    font-stretch="normal"
    units-per-em="2048"
    panose-1="2 11 5 3 3 5 2 6 2 4"
    ascent="1618"
    descent="-430"
    x-height="989"
    cap-height="1366"
    bbox="-117 -408 2152 1817"
    underline-thickness="40"
    underline-position="-271"
    unicode-range="U+000D-FB04"
  />
<missing-glyph horiz-adv-x="748" 
d="M68 0v1365h544v-1365h-544zM136 68h408v1229h-408v-1229z" />
    <glyph glyph-name="uniFB01" unicode="fi" horiz-adv-x="1042" 
d="M33 854v135h164v76q0 152 77.5 236.5t208.5 84.5q97 0 150 -34l-39 -117q-41 25 -88 25q-75 0 -115.5 -50.5t-40.5 -144.5v-76h201v-135h-201v-854h-153v854h-164zM707 1233q0 43 30.5 73.5t71.5 30.5q43 0 73.5 -30.5t30.5 -73.5t-30.5 -73t-73.5 -30q-41 0 -71.5 30
t-30.5 73zM733 0v989h154v-989h-154z" />
    <glyph glyph-name="uniFB02" unicode="fl" horiz-adv-x="1042" 
d="M33 854v135h164v76q0 152 77.5 236.5t208.5 84.5q97 0 150 -34l-39 -117q-41 25 -88 25q-75 0 -115.5 -50.5t-40.5 -144.5v-76h201v-135h-201v-854h-153v854h-164zM733 0v1366h154v-1366h-154z" />
    <glyph glyph-name="uniFB03" unicode="ffi" horiz-adv-x="1622" 
d="M33 854v135h164v76q0 152 77.5 236.5t208.5 84.5q97 0 150 -34l-39 -115q-41 23 -88 23q-75 0 -115.5 -50.5t-40.5 -144.5v-76h201v-135h-201v-854h-153v854h-164zM612 854v135h164v76q0 151 78 236t209 85q96 0 149 -34l-38 -117q-41 25 -89 25q-75 0 -115 -50.5
t-40 -144.5v-76h200v-135h-200v-854h-154v854h-164zM1288 1233q0 43 31 73.5t72 30.5q43 0 73.5 -30.5t30.5 -73.5t-30.5 -73t-73.5 -30q-42 0 -72.5 30.5t-30.5 72.5zM1315 0v989h153v-989h-153z" />
    <glyph glyph-name="uniFB04" unicode="ffl" horiz-adv-x="1622" 
d="M33 854v135h164v76q0 152 77.5 236.5t208.5 84.5q97 0 150 -34l-39 -115q-41 23 -88 23q-75 0 -115.5 -50.5t-40.5 -144.5v-76h201v-135h-201v-854h-153v854h-164zM612 854v135h164v76q0 151 78 236t209 85q96 0 149 -34l-38 -117q-41 25 -89 25q-75 0 -115 -50.5
t-40 -144.5v-76h200v-135h-200v-854h-154v854h-164zM1315 0v1366h153v-1366h-153z" />
    <glyph glyph-name=".notdef" horiz-adv-x="748" 
d="M68 0v1365h544v-1365h-544zM136 68h408v1229h-408v-1229z" />
    <glyph glyph-name="glyph1" horiz-adv-x="0" 
 />
    <glyph glyph-name="glyph2" horiz-adv-x="682" 
 />
    <glyph glyph-name="glyph3" horiz-adv-x="0" 
 />
    <glyph glyph-name="glyph3" horiz-adv-x="0" 
 />
    <glyph glyph-name="uni000D" unicode="&#xd;" horiz-adv-x="0" 
 />
    <glyph glyph-name="space" unicode=" " horiz-adv-x="528" 
 />
    <glyph glyph-name="exclam" unicode="!" horiz-adv-x="471" 
d="M123 92q0 46 33.5 79.5t79.5 33.5t79 -33.5t33 -79.5q0 -45 -33.5 -78.5t-78.5 -33.5q-46 0 -79.5 34t-33.5 78zM139 1366h193l-33 -983h-127z" />
    <glyph glyph-name="quotedbl" unicode="&#x22;" horiz-adv-x="702" 
d="M111 1292q0 38 27 66t65 28q39 0 66.5 -27.5t27.5 -66.5q0 -13 -13.5 -125t-27.5 -217l-14 -106h-76q-55 419 -55 448zM408 1292q0 39 27.5 66.5t66.5 27.5q38 0 65 -28t27 -66q0 -13 -14 -125t-28 -217l-13 -106h-76q-55 419 -55 448z" />
    <glyph glyph-name="numbersign" unicode="#" horiz-adv-x="1208" 
d="M45 371l35 108h219l135 408h-221l33 106h225l123 373h127l-123 -373h225l123 373h125l-125 -373h219l-30 -106h-224l-137 -408h227l-32 -108h-232l-123 -371h-125l125 371h-227l-123 -371h-127l125 371h-217zM424 479h225l135 408h-225z" />
    <glyph glyph-name="dollar" unicode="$" horiz-adv-x="1214" 
d="M86 193l100 129q67 -75 160.5 -127.5t208.5 -65.5v500q-54 15 -90 26t-85 30t-81 38t-67 48t-55.5 62t-34 77.5t-13.5 97.5q0 158 119 261.5t307 114.5v189h125v-191q246 -23 403 -186l-102 -125q-122 131 -301 156v-445q53 -15 91 -27t86.5 -32t82.5 -41t69 -52
t56.5 -66.5t35 -83t13.5 -103.5q0 -73 -24 -138t-74 -121.5t-136 -94t-200 -46.5v-182h-125v182q-295 17 -469 216zM305 1018q0 -42 18.5 -74t55.5 -56t77 -40t99 -33v418q-111 -8 -180.5 -66.5t-69.5 -148.5zM680 129q134 14 196 81.5t62 151.5q0 48 -19 85.5t-57 64.5
t-80 45.5t-102 36.5v-465z" />
    <glyph glyph-name="percent" unicode="%" horiz-adv-x="1497" 
d="M63 1047q0 146 91.5 242.5t236.5 96.5q146 0 239 -96.5t93 -242.5q0 -144 -93 -239t-239 -95q-145 0 -236.5 95t-91.5 239zM186 1047q0 -98 57.5 -165t147.5 -67q91 0 150 67t59 165q0 102 -58.5 168.5t-150.5 66.5q-90 0 -147.5 -66.5t-57.5 -168.5zM262 0l873 1366h112
l-874 -1366h-111zM776 309q0 146 91.5 243t236.5 97t237.5 -97t92.5 -243q0 -144 -92.5 -239t-237.5 -95t-236.5 95t-91.5 239zM897 309q0 -98 58 -164.5t149 -66.5t150 66.5t59 164.5q0 102 -58.5 169t-150.5 67q-91 0 -149 -67t-58 -169z" />
    <glyph glyph-name="ampersand" unicode="&#x26;" horiz-adv-x="1312" 
d="M74 356q0 77 23.5 140.5t69 112t93.5 83.5t115 70q-105 179 -105 307q0 136 99 226.5t245 90.5q137 0 223.5 -71t86.5 -197q0 -43 -11.5 -81.5t-26.5 -68t-45.5 -60t-54 -50t-67.5 -46t-69 -40t-75 -39.5q60 -83 158 -194q70 -85 162 -183q87 129 147 312l134 -58
q-98 -227 -187 -352q102 -107 266 -258h-213q-62 53 -149 143q-168 -168 -393 -168q-186 0 -306 99t-120 282zM240 367q0 -122 80.5 -193.5t193.5 -71.5q151 0 287 136q-141 149 -189 206q-100 115 -172 218q-96 -59 -148 -128t-52 -167zM430 1067q0 -96 82 -236
q50 25 84.5 44t72.5 46.5t60.5 54t37.5 62t15 74.5q0 73 -45 113.5t-116 40.5q-79 0 -135 -56.5t-56 -142.5z" />
    <glyph glyph-name="quotesingle" unicode="'" horiz-adv-x="407" 
d="M111 1292q0 38 27 66t65 28q39 0 66.5 -27.5t27.5 -66.5q0 -13 -13.5 -125t-27.5 -217l-14 -106h-76q-55 419 -55 448z" />
    <glyph glyph-name="parenleft" unicode="(" horiz-adv-x="507" 
d="M90 498q0 246 75 479.5t214 425.5l92 -70q-108 -214 -160.5 -404t-52.5 -431q0 -240 52.5 -431t160.5 -403l-92 -72q-139 190 -214 424.5t-75 481.5z" />
    <glyph glyph-name="parenright" unicode=")" horiz-adv-x="507" 
d="M35 -336q109 211 162 402.5t53 431.5q0 241 -53 431.5t-162 403.5l92 70q140 -191 215.5 -425t75.5 -480q0 -247 -75.5 -482t-215.5 -424z" />
    <glyph glyph-name="asterisk" unicode="*" horiz-adv-x="696" 
d="M70 985l209 107l-209 106l45 80l196 -127l-10 235h94l-12 -235l197 127l47 -80l-209 -106l209 -107l-47 -82l-197 129l12 -235h-94l10 235l-196 -129z" />
    <glyph glyph-name="plus" unicode="+" horiz-adv-x="1021" 
d="M59 637v106h394v424h116v-424h394v-106h-394v-436h-116v436h-394z" />
    <glyph glyph-name="comma" unicode="," horiz-adv-x="471" 
d="M117 -197q51 33 89 87t44 104q-8 -4 -29 -4q-43 0 -70.5 29t-27.5 75q0 45 31.5 78t76.5 33q53 0 91 -42.5t38 -113.5q0 -90 -46.5 -173t-120.5 -136z" />
    <glyph glyph-name="hyphen" unicode="-" horiz-adv-x="614" 
d="M61 428v135h492v-135h-492z" />
    <glyph glyph-name="period" unicode="." horiz-adv-x="471" 
d="M123 92q0 46 33.5 79.5t79.5 33.5t79 -33.5t33 -79.5t-33 -79t-79 -33t-79.5 33t-33.5 79z" />
    <glyph glyph-name="slash" unicode="/" horiz-adv-x="606" 
d="M0 -41l485 1448h121l-485 -1448h-121z" />
    <glyph glyph-name="zero" unicode="0" horiz-adv-x="1253" 
d="M104 682q0 104 18 202t58.5 190t100 160.5t148.5 110t198 41.5q108 0 197 -41.5t148.5 -110t100 -160.5t58.5 -190.5t18 -201.5t-18 -201.5t-58.5 -191t-100 -161.5t-148.5 -111t-197 -42q-109 0 -198 42t-148.5 111t-100 162t-58.5 191t-18 201zM279 682
q0 -108 18.5 -202.5t57.5 -176t109 -129t163 -47.5t163 47.5t109 129t57.5 176t18.5 202.5q0 85 -11 162t-37 149.5t-65 125.5t-99.5 84.5t-135.5 31.5t-135.5 -31.5t-99.5 -84.5t-65 -125.5t-37 -149.5t-11 -162z" />
    <glyph glyph-name="one" unicode="1" horiz-adv-x="694" 
d="M43 1014l342 352h150v-1366h-170v1141l-220 -232z" />
    <glyph glyph-name="two" unicode="2" horiz-adv-x="1204" 
d="M109 1171q77 102 203 158.5t272 56.5q87 0 167.5 -25t146 -73t105 -126.5t39.5 -176.5q0 -82 -34 -166.5t-88 -159.5t-145 -165.5t-179 -165t-217 -176.5h670v-152h-938v135q103 81 174.5 138.5t150.5 123.5t131.5 115t106 104t85.5 99t59 91t38.5 91t11.5 88
q0 83 -42.5 141.5t-105 83.5t-136.5 25q-119 0 -213.5 -46t-157.5 -126z" />
    <glyph glyph-name="three" unicode="3" horiz-adv-x="1140" 
d="M59 201l101 106q62 -82 162.5 -131t218.5 -49q149 0 234 68.5t85 187.5q0 123 -91 182.5t-249 59.5q-121 0 -141 -2v155q23 -2 141 -2q139 0 228.5 56.5t89.5 168.5q0 110 -87.5 172t-218.5 62q-110 0 -196.5 -41t-163.5 -125l-94 107q79 95 197.5 152.5t269.5 57.5
q202 0 332.5 -97.5t130.5 -266.5q0 -70 -27.5 -128.5t-72.5 -96t-94 -60.5t-101 -32q39 -3 81 -17.5t84 -42.5t75 -65.5t54 -92.5t21 -118q0 -174 -130.5 -284t-352.5 -110q-165 0 -291.5 63.5t-194.5 162.5z" />
    <glyph glyph-name="four" unicode="4" horiz-adv-x="1142" 
d="M66 346v141l585 879h234v-870h192v-150h-192v-346h-170v346h-649zM236 496h479v712z" />
    <glyph glyph-name="five" unicode="5" horiz-adv-x="1208" 
d="M135 195l105 112q141 -180 376 -180q138 0 227 83.5t89 209.5q0 134 -87.5 214.5t-226.5 80.5q-183 0 -315 -129l-125 43v737h836v-152h-666v-475q53 53 138 88t182 35q86 0 163.5 -29t138.5 -83t96.5 -138t35.5 -186q0 -205 -138 -328t-348 -123q-315 0 -481 220z" />
    <glyph glyph-name="six" unicode="6" horiz-adv-x="1210" 
d="M104 680q0 113 20.5 216t65 193t108.5 155.5t156.5 103.5t204.5 38q236 0 379 -163l-86 -127q-58 68 -125.5 103.5t-167.5 35.5q-95 0 -170.5 -46t-121.5 -122.5t-69.5 -171t-23.5 -197.5q0 -35 2 -53q51 81 158.5 147t229.5 66q93 0 173.5 -27.5t141.5 -80.5t96 -137.5
t35 -190.5q0 -89 -33.5 -170t-93.5 -142.5t-151.5 -98t-200.5 -36.5q-111 0 -200.5 38t-149.5 103t-100.5 155.5t-58.5 192.5t-18 216zM281 506q6 -69 27.5 -132t60.5 -120.5t105 -92t151 -34.5q76 0 137.5 26.5t98.5 69t57 92.5t20 101q0 144 -88 219.5t-227 75.5
q-100 0 -192 -56.5t-150 -148.5z" />
    <glyph glyph-name="seven" unicode="7" horiz-adv-x="1054" 
d="M63 1214v152h932v-117l-559 -1249h-188l551 1214h-736z" />
    <glyph glyph-name="eight" unicode="8" horiz-adv-x="1189" 
d="M106 346q0 129 94 223t232 136q-132 38 -217.5 119.5t-85.5 207.5q0 89 40.5 158.5t108.5 111t149 63t169 21.5q87 0 168.5 -21.5t150 -63t109.5 -111t41 -158.5q0 -65 -25 -120t-69 -94.5t-96.5 -67t-114.5 -45.5q138 -41 231.5 -135.5t93.5 -223.5
q0 -168 -140.5 -269.5t-348.5 -101.5q-136 0 -246.5 43.5t-177 129t-66.5 198.5zM276 365q0 -107 94 -172.5t226 -65.5q131 0 224 65.5t93 172.5q0 51 -25 95t-62 72.5t-82.5 50.5t-82 32.5t-65.5 13.5q-29 -3 -66 -13.5t-82.5 -32.5t-83 -50.5t-63 -72.5t-25.5 -95z
M299 1010q0 -47 23.5 -86.5t56.5 -64t77.5 -44t76.5 -28t63 -13.5q31 5 63.5 13.5t76.5 28t77 44t56.5 64t23.5 86.5q0 103 -85 164t-212 61q-128 0 -212.5 -61t-84.5 -164z" />
    <glyph glyph-name="nine" unicode="9" horiz-adv-x="1210" 
d="M100 942q0 89 33.5 169.5t93.5 142.5t151.5 98.5t199.5 36.5q112 0 202 -38t150 -103t100 -156t58 -193t18 -217q0 -113 -20.5 -215.5t-65 -192t-108.5 -155.5t-156.5 -104t-204.5 -38q-235 0 -379 164l86 127q58 -68 126 -103.5t167 -35.5q80 0 145.5 31t109.5 83
t74 121.5t43 144.5t13 155q0 37 -2 55q-51 -81 -158 -147t-227 -66q-126 0 -225.5 47t-161.5 147.5t-62 241.5zM272 948q0 -144 88.5 -219.5t227.5 -75.5q100 0 193 56t147 147q-4 54 -17.5 105t-40.5 102t-64.5 89t-94 61.5t-125.5 23.5q-75 0 -136.5 -27t-99.5 -69.5
t-58 -92.5t-20 -100z" />
    <glyph glyph-name="colon" unicode=":" horiz-adv-x="471" 
d="M123 92q0 46 33.5 79.5t79.5 33.5t79 -33.5t33 -79.5t-33 -79t-79 -33t-79.5 33t-33.5 79zM123 891q0 46 33.5 79.5t79.5 33.5t79 -33.5t33 -79.5t-33 -79.5t-79 -33.5t-79.5 33.5t-33.5 79.5z" />
    <glyph glyph-name="semicolon" unicode=";" horiz-adv-x="471" 
d="M117 -195q50 33 88.5 88t44.5 105q-12 -6 -29 -6q-43 0 -70.5 29.5t-27.5 74.5q0 46 31.5 79.5t76.5 33.5q53 0 91 -42.5t38 -113.5q0 -92 -46.5 -174.5t-120.5 -134.5zM123 891q0 46 33.5 79.5t79.5 33.5t79 -33.5t33 -79.5q0 -45 -33.5 -79t-78.5 -34t-79 34t-34 79z
" />
    <glyph glyph-name="less" unicode="&#x3c;" horiz-adv-x="1021" 
d="M59 631v108l904 449v-129l-773 -375l773 -373v-127z" />
    <glyph glyph-name="equal" unicode="=" horiz-adv-x="1021" 
d="M59 432v107h904v-107h-904zM59 827v109h904v-109h-904z" />
    <glyph glyph-name="greater" unicode="&#x3e;" horiz-adv-x="1021" 
d="M59 184v127l770 373l-770 375v129l904 -449v-108z" />
    <glyph glyph-name="question" unicode="?" horiz-adv-x="946" 
d="M37 1178q76 98 189 153t255 55q183 0 292.5 -90.5t109.5 -226.5q0 -50 -15 -94.5t-33.5 -74t-55 -64t-59.5 -51.5t-67 -48q-45 -31 -65.5 -46.5t-49.5 -43.5t-41 -55.5t-12 -59.5q0 -25 15 -52.5t41 -47.5l-125 -53q-80 68 -80 166q0 33 7 62.5t24 56t30.5 44.5t43 42.5
t43.5 35t48 35.5q44 30 67 47.5t52.5 46.5t42.5 60.5t13 68.5q0 81 -63 136t-179 55q-109 0 -186.5 -43.5t-139.5 -124.5zM346 92q0 46 33.5 79.5t79.5 33.5t79 -33.5t33 -79.5t-33 -79t-79 -33t-79.5 33t-33.5 79z" />
    <glyph glyph-name="at" unicode="@" horiz-adv-x="1603" 
d="M72 500q0 162 67.5 312t179 258t260.5 172.5t306 64.5q189 0 337.5 -88t228 -235.5t79.5 -326.5q0 -116 -31 -210.5t-82 -152.5t-113 -89t-128 -31q-82 0 -132 48.5t-55 117.5l-2 12q-57 -79 -142.5 -128.5t-180.5 -49.5q-142 0 -228 92t-86 242q0 104 41.5 200
t108.5 164.5t154 109t177 40.5q95 0 163.5 -45t99.5 -115l26 127h140l-117 -555q-4 -24 -4 -43q0 -51 27 -78.5t69 -27.5q26 0 54 11t58.5 39t54 68.5t39 106.5t15.5 147q0 254 -160 417t-419 163q-145 0 -281 -61t-235.5 -161.5t-159.5 -235t-60 -275.5q0 -163 75.5 -295.5
t210.5 -208.5t302 -76q199 0 381 115l37 -53q-200 -129 -426 -129q-183 0 -332 85t-233 232t-84 326zM496 516q0 -100 56.5 -163.5t152.5 -63.5t174 53.5t131 130.5l59 283q-21 58 -75 104.5t-136 46.5q-99 0 -183.5 -56.5t-131.5 -146.5t-47 -188z" />
    <glyph glyph-name="A" unicode="A" horiz-adv-x="1347" 
d="M18 0l549 1366h211l551 -1366h-194l-121 303h-680l-121 -303h-195zM383 455h580l-289 735z" />
    <glyph glyph-name="B" unicode="B" horiz-adv-x="1288" 
d="M160 0v1366h608q176 0 279.5 -96t103.5 -252q0 -123 -70 -207t-170 -106q109 -17 188 -115.5t79 -220.5q0 -167 -105.5 -268t-290.5 -101h-622zM330 152h418q119 0 186 63t67 172q0 100 -66.5 168t-186.5 68h-418v-471zM330 774h409q112 0 174 61t62 158q0 96 -62 158.5
t-174 62.5h-409v-440z" />
    <glyph glyph-name="C" unicode="C" horiz-adv-x="1384" 
d="M104 682q0 154 55 287t149 224.5t223.5 143.5t275.5 52q326 0 518 -271l-143 -80q-60 89 -160.5 144t-214.5 55q-148 0 -268 -70t-189 -197.5t-69 -287.5q0 -159 69 -286.5t189 -198t268 -70.5q115 0 215 54.5t160 144.5l145 -80q-200 -271 -520 -271q-146 0 -275.5 52
t-223.5 143.5t-149 224.5t-55 287z" />
    <glyph glyph-name="D" unicode="D" horiz-adv-x="1433" 
d="M160 0v1366h467q208 0 368.5 -90.5t246 -245.5t85.5 -348q0 -145 -50 -270.5t-140.5 -216.5t-222 -143t-287.5 -52h-467zM330 152h297q161 0 282 72t181.5 191t60.5 267q0 150 -59.5 269t-180 191t-284.5 72h-297v-1062z" />
    <glyph glyph-name="E" unicode="E" horiz-adv-x="1165" 
d="M160 0v1366h895v-152h-725v-440h710v-151h-710v-471h725v-152h-895z" />
    <glyph glyph-name="F" unicode="F" horiz-adv-x="1126" 
d="M160 0v1366h895v-152h-725v-440h710v-151h-710v-623h-170z" />
    <glyph glyph-name="G" unicode="G" horiz-adv-x="1460" 
d="M104 682q0 156 55.5 289t150 224t223.5 142.5t274 51.5q323 0 530 -256l-135 -84q-66 86 -170.5 137t-224.5 51q-148 0 -268 -70t-189 -197.5t-69 -287.5q0 -242 150.5 -399.5t375.5 -157.5q113 0 210.5 44t156.5 103v279h-469v151h638v-493q-99 -110 -236.5 -173
t-299.5 -63q-145 0 -274 51.5t-223.5 143t-150 225t-55.5 289.5z" />
    <glyph glyph-name="H" unicode="H" horiz-adv-x="1458" 
d="M160 0v1366h170v-588h798v588h170v-1366h-170v627h-798v-627h-170z" />
    <glyph glyph-name="I" unicode="I" horiz-adv-x="489" 
d="M160 0v1366h170v-1366h-170z" />
    <glyph glyph-name="J" unicode="J" horiz-adv-x="972" 
d="M23 133l88 129q111 -135 258 -135q125 0 199.5 79t74.5 208v952h170v-954q0 -109 -33.5 -193.5t-92.5 -137t-137 -79.5t-171 -27q-222 0 -356 158z" />
    <glyph glyph-name="K" unicode="K" horiz-adv-x="1230" 
d="M160 0v1366h170v-707l604 707h213l-569 -649l618 -717h-211l-518 614l-137 -155v-459h-170z" />
    <glyph glyph-name="L" unicode="L" horiz-adv-x="1044" 
d="M160 0v1366h170v-1214h635v-152h-805z" />
    <glyph glyph-name="M" unicode="M" horiz-adv-x="1656" 
d="M160 0v1366h243l424 -1028l426 1028h244v-1366h-170v1124l-465 -1124h-69l-463 1124v-1124h-170z" />
    <glyph glyph-name="N" unicode="N" horiz-adv-x="1449" 
d="M160 0v1366h174l786 -1067v1067h170v-1366h-164l-796 1090v-1090h-170z" />
    <glyph glyph-name="O" unicode="O" horiz-adv-x="1566" 
d="M104 682q0 200 84 361t239.5 253.5t354.5 92.5q198 0 353.5 -92.5t240 -253.5t84.5 -361t-84.5 -361t-240 -253.5t-353.5 -92.5q-199 0 -354.5 92.5t-239.5 253.5t-84 361zM281 682q0 -158 60.5 -284t175.5 -198.5t265 -72.5q149 0 264.5 72.5t176.5 198.5t61 284
q0 159 -61 285t-176 198t-265 72q-227 0 -364 -156t-137 -399z" />
    <glyph glyph-name="P" unicode="P" horiz-adv-x="1202" 
d="M160 0v1366h549q198 0 313 -118.5t115 -293.5q0 -174 -116 -292.5t-312 -118.5h-379v-543h-170zM330 694h358q121 0 197 72t76 188t-76 188t-197 72h-358v-520z" />
    <glyph glyph-name="Q" unicode="Q" horiz-adv-x="1566" 
d="M104 682q0 200 84 361t239.5 253.5t354.5 92.5q198 0 353.5 -92.5t240 -253.5t84.5 -361q0 -151 -49 -280t-139 -224l131 -139l-119 -102l-133 141q-159 -103 -369 -103q-199 0 -354.5 92.5t-239.5 253.5t-84 361zM281 682q0 -158 60.5 -284t175.5 -198.5t265 -72.5
q145 0 260 70l-194 211l119 100l192 -209q125 153 125 383q0 159 -61 285t-176 198t-265 72q-227 0 -364 -156t-137 -399z" />
    <glyph glyph-name="R" unicode="R" horiz-adv-x="1245" 
d="M160 0v1366h549q190 0 309 -112.5t119 -299.5q0 -175 -103 -279.5t-252 -117.5l369 -557h-201l-348 543h-272v-543h-170zM330 692h358q121 0 197 73t76 189t-76 188t-197 72h-358v-522z" />
    <glyph glyph-name="S" unicode="S" horiz-adv-x="1200" 
d="M78 193l100 129q76 -85 186 -140t244 -55q87 0 152.5 21.5t101 57.5t52 75t16.5 81q0 30 -7 56t-22.5 47t-31.5 37.5t-45 32t-50.5 26t-60 23t-62 19t-67.5 18.5q-185 48 -264 87q-174 85 -196 248q-3 25 -3 52q0 167 133 272.5t336 105.5q304 0 485 -190l-102 -125
q-148 164 -395 164q-124 0 -202.5 -60.5t-78.5 -156.5q0 -99 119 -156q59 -27 213 -69q48 -13 75.5 -20.5t73.5 -22.5t74 -27.5t67 -32.5t62.5 -41t50 -50t41 -61t24 -73t9.5 -88q0 -62 -16.5 -118.5t-55 -109t-95.5 -90.5t-143.5 -61t-193.5 -23q-330 0 -524 218z" />
    <glyph glyph-name="T" unicode="T" horiz-adv-x="1167" 
d="M66 1214v152h1036v-152h-434v-1214h-170v1214h-432z" />
    <glyph glyph-name="U" unicode="U" horiz-adv-x="1433" 
d="M160 530v836h170v-831q0 -190 100.5 -299t286.5 -109t286.5 109t100.5 299v831h170v-834q0 -261 -142 -409t-415 -148q-272 0 -414.5 148.5t-142.5 406.5z" />
    <glyph glyph-name="V" unicode="V" horiz-adv-x="1347" 
d="M18 1366h195l461 -1180l461 1180h194l-551 -1366h-211z" />
    <glyph glyph-name="W" unicode="W" horiz-adv-x="1808" 
d="M29 1366h188l303 -1139l314 1139h141l313 -1139l301 1139h189l-389 -1366h-185l-301 1102l-301 -1102h-184z" />
    <glyph glyph-name="X" unicode="X" horiz-adv-x="1335" 
d="M25 0l532 700l-502 666h207l406 -547l403 547h207l-500 -664l531 -702h-205l-436 582l-437 -582h-206z" />
    <glyph glyph-name="Y" unicode="Y" horiz-adv-x="1282" 
d="M18 1366h199l424 -635l424 635h199l-537 -788v-578h-170v578z" />
    <glyph glyph-name="Z" unicode="Z" horiz-adv-x="1198" 
d="M98 0v141l768 1073h-768v152h985v-141l-768 -1073h783v-152h-1000z" />
    <glyph glyph-name="bracketleft" unicode="[" horiz-adv-x="497" 
d="M82 -389v1778h381v-113h-262v-1552h262v-113h-381z" />
    <glyph glyph-name="backslash" unicode="\" horiz-adv-x="606" 
d="M0 1407h121l485 -1448h-121z" />
    <glyph glyph-name="bracketright" unicode="]" horiz-adv-x="497" 
d="M35 -276h262v1552h-262v113h381v-1778h-381v113z" />
    <glyph glyph-name="asciicircum" unicode="^" horiz-adv-x="884" 
d="M39 682l346 684h117l344 -684h-127l-277 571l-276 -571h-127z" />
    <glyph glyph-name="underscore" unicode="_" horiz-adv-x="1155" 
d="M-6 -82h1167v-113h-1167v113z" />
    <glyph glyph-name="grave" unicode="`" horiz-adv-x="462" 
d="M0 1434h160l303 -295h-117z" />
    <glyph glyph-name="a" unicode="a" horiz-adv-x="1079" 
d="M98 303q0 80 30 144t80 102.5t110.5 59t125.5 20.5q211 0 328 -135v178q0 97 -70 153t-180 56q-174 0 -303 -138l-72 107q157 164 396 164q81 0 148.5 -19t121 -57.5t83.5 -104.5t30 -153v-680h-154v113q-126 -138 -328 -138q-87 0 -164 36t-129.5 112.5t-52.5 179.5z
M256 301q0 -94 68.5 -154.5t175.5 -60.5q84 0 156.5 31.5t115.5 91.5v186q-43 60 -115.5 91.5t-156.5 31.5q-107 0 -175.5 -61t-68.5 -156z" />
    <glyph glyph-name="b" unicode="b" horiz-adv-x="1177" 
d="M154 0v1366h153v-526q61 83 147.5 128.5t186.5 45.5q195 0 317.5 -143t122.5 -377q0 -238 -122 -378.5t-318 -140.5q-101 0 -188.5 47t-145.5 125v-147h-153zM307 268q41 -66 123.5 -110.5t171.5 -44.5q148 0 234 106.5t86 274.5t-86 275.5t-234 107.5q-88 0 -171 -46.5
t-124 -113.5v-449z" />
    <glyph glyph-name="c" unicode="c" horiz-adv-x="1013" 
d="M96 496q0 146 61.5 263.5t174.5 186t258 68.5q229 0 362 -172l-102 -94q-95 129 -252 129q-156 0 -249 -107t-93 -274t93 -275t249 -108q155 0 252 129l102 -95q-133 -172 -362 -172q-145 0 -258 68.5t-174.5 187t-61.5 265.5z" />
    <glyph glyph-name="d" unicode="d" horiz-adv-x="1177" 
d="M96 494q0 235 122.5 377.5t318.5 142.5q99 0 185.5 -46t147.5 -128v526h154v-1366h-154v147q-58 -78 -145 -125t-188 -47q-196 0 -318.5 140.5t-122.5 378.5zM256 494q0 -168 85.5 -274.5t231.5 -106.5q90 0 172.5 44.5t124.5 110.5v449q-43 67 -125.5 113.5t-171.5 46.5
q-146 0 -231.5 -107.5t-85.5 -275.5z" />
    <glyph glyph-name="e" unicode="e" horiz-adv-x="1153" 
d="M96 496q0 142 62.5 260.5t174.5 188t251 69.5q146 0 255 -71t164.5 -190.5t55.5 -269.5v-39h-801q9 -145 105.5 -243.5t250.5 -98.5q86 0 167 33t139 92l73 -100q-152 -152 -393 -152q-221 0 -362.5 145t-141.5 376zM258 557h649q-1 58 -20.5 114t-57.5 105.5t-102 80
t-145 30.5q-76 0 -138 -30t-100.5 -78.5t-60.5 -105.5t-25 -116z" />
    <glyph glyph-name="f" unicode="f" horiz-adv-x="579" 
d="M33 854v135h164v76q0 152 77.5 236.5t208.5 84.5q97 0 150 -34l-39 -115q-41 23 -88 23q-75 0 -115.5 -50.5t-40.5 -144.5v-76h201v-135h-201v-854h-153v854h-164z" />
    <glyph glyph-name="g" unicode="g" horiz-adv-x="1175" 
d="M96 500q0 235 122 374.5t319 139.5q99 0 184.5 -45.5t146.5 -128.5v149h154v-960q0 -95 -26 -170t-69.5 -123t-105 -79.5t-128 -44.5t-142.5 -13q-132 0 -223 32t-176 115l77 115q60 -72 137 -103.5t185 -31.5q64 0 119 16.5t100.5 50.5t71.5 93t26 137v141
q-57 -79 -144 -127.5t-187 -48.5q-197 0 -319 138t-122 374zM256 500q0 -166 85.5 -271.5t231.5 -105.5q89 0 171 47.5t124 114.5v432q-41 67 -123.5 113.5t-171.5 46.5q-147 0 -232 -105t-85 -272z" />
    <glyph glyph-name="h" unicode="h" horiz-adv-x="1130" 
d="M154 0v1366h153v-520q59 69 154.5 118.5t200.5 49.5q315 0 315 -316v-698h-154v651q0 124 -57.5 175t-165.5 51q-85 0 -165.5 -45t-127.5 -109v-723h-153z" />
    <glyph glyph-name="i" unicode="i" horiz-adv-x="460" 
d="M127 1233q0 43 30.5 73.5t71.5 30.5q43 0 74 -30.5t31 -73.5t-31 -73t-74 -30q-41 0 -71.5 30t-30.5 73zM154 0v989h153v-989h-153z" />
    <glyph glyph-name="j" unicode="j" horiz-adv-x="460" 
d="M-94 -387l20 129q25 -10 74 -10q154 0 154 172v1085h153v-1085q0 -146 -75.5 -225.5t-215.5 -79.5q-64 0 -110 14zM127 1233q0 43 30.5 73.5t71.5 30.5q43 0 74 -30.5t31 -73.5t-31 -73t-74 -30q-41 0 -71.5 30t-30.5 73z" />
    <glyph glyph-name="k" unicode="k" horiz-adv-x="1052" 
d="M154 0v1366h153v-903l520 526h195l-438 -448l440 -541h-197l-356 444l-164 -161v-283h-153z" />
    <glyph glyph-name="l" unicode="l" horiz-adv-x="460" 
d="M154 0v1366h153v-1366h-153z" />
    <glyph glyph-name="m" unicode="m" horiz-adv-x="1654" 
d="M154 0v989h153v-143q37 57 129 112.5t191 55.5q108 0 175.5 -51.5t90.5 -133.5q45 73 138 129t194 56q136 0 206 -75t70 -224v-715h-153v672q0 97 -45.5 151t-137.5 54q-73 0 -147.5 -45t-114.5 -107v-725h-153v672q0 205 -183 205q-72 0 -145 -45.5t-115 -108.5v-723
h-153z" />
    <glyph glyph-name="n" unicode="n" horiz-adv-x="1128" 
d="M154 0v989h153v-143q58 69 153.5 118.5t198.5 49.5q316 0 316 -320v-694h-154v647q0 124 -57 177t-164 53q-86 0 -166.5 -45t-126.5 -109v-723h-153z" />
    <glyph glyph-name="o" unicode="o" 
d="M96 496q0 144 59 261t171.5 187t259.5 70t259.5 -70t171 -187t58.5 -261t-58.5 -262t-171 -188.5t-259.5 -70.5t-259.5 70.5t-171.5 188.5t-59 262zM256 496q0 -160 89 -271.5t241 -111.5q102 0 177.5 54t112.5 139.5t37 189.5q0 103 -37 188t-112.5 139t-177.5 54
t-178.5 -54t-114 -139.5t-37.5 -187.5z" />
    <glyph glyph-name="p" unicode="p" 
d="M154 -377v1366h153v-147q56 78 144.5 125t189.5 47q197 0 318.5 -139.5t121.5 -378.5q0 -237 -121.5 -379t-318.5 -142q-101 0 -187.5 45.5t-146.5 129.5v-527h-153zM307 272q41 -67 124 -113t171 -46q146 0 232 107.5t86 275.5t-86 274.5t-232 106.5q-88 0 -171 -46
t-124 -112v-447z" />
    <glyph glyph-name="q" unicode="q" 
d="M90 496q0 239 121.5 378.5t318.5 139.5q101 0 189.5 -47.5t142.5 -124.5v147h154v-1366h-154v527q-60 -84 -146.5 -129.5t-185.5 -45.5q-197 0 -318.5 142t-121.5 379zM252 496q0 -168 84.5 -275.5t230.5 -107.5q90 0 173 46t122 113v447q-39 66 -122 112t-173 46
q-146 0 -230.5 -106.5t-84.5 -274.5z" />
    <glyph glyph-name="r" unicode="r" horiz-adv-x="675" 
d="M154 0v989h153v-160q64 83 148.5 132t181.5 49v-158q-27 6 -62 6q-70 0 -152 -49t-116 -109v-700h-153z" />
    <glyph glyph-name="s" unicode="s" horiz-adv-x="952" 
d="M68 131l79 111q53 -60 141 -101t185 -41q111 0 172.5 47t61.5 123q0 23 -8 42.5t-18 33t-33 27t-38 21t-49.5 18t-50.5 14.5t-57 14q-48 11 -74 17.5t-70 20.5t-69 27.5t-56.5 36t-48.5 47.5t-29 61t-12 79q0 121 99 203t270 82q222 0 366 -144l-71 -106
q-46 56 -124.5 90.5t-170.5 34.5q-99 0 -159 -44.5t-60 -111.5q0 -20 7.5 -36.5t17 -29t30.5 -24t36 -18.5t46.5 -16t48.5 -13.5t55 -13.5q47 -11 75.5 -18t72.5 -21.5t71 -29t59 -38.5t50 -51t30.5 -65.5t12.5 -84.5q0 -130 -102 -214.5t-287 -84.5q-252 0 -399 156z" />
    <glyph glyph-name="t" unicode="t" horiz-adv-x="602" 
d="M20 854v135h164v271h154v-271h201v-135h-201v-614q0 -58 25.5 -92.5t74.5 -34.5q69 0 105 41l45 -115q-67 -64 -185 -64q-108 0 -163.5 60.5t-55.5 171.5v647h-164z" />
    <glyph glyph-name="u" unicode="u" horiz-adv-x="1128" 
d="M154 291v698h153v-651q0 -124 57 -174.5t164 -50.5q87 0 167.5 43t125.5 106v727h154v-989h-154v139q-62 -70 -155 -117t-197 -47q-315 0 -315 316z" />
    <glyph glyph-name="v" unicode="v" horiz-adv-x="1003" 
d="M6 989h166l330 -811l327 811h168l-411 -989h-168z" />
    <glyph glyph-name="w" unicode="w" horiz-adv-x="1503" 
d="M25 989h159l242 -788l260 788h131l260 -788l242 788h160l-316 -989h-153l-258 795l-258 -795h-154z" />
    <glyph glyph-name="x" unicode="x" horiz-adv-x="995" 
d="M25 0l378 508l-358 481h178l275 -377l274 377h178l-358 -481l381 -508h-178l-297 406l-297 -406h-176z" />
    <glyph glyph-name="y" unicode="y" horiz-adv-x="1003" 
d="M6 989h166l330 -811l327 811h168l-495 -1190q-81 -197 -291 -200q-62 0 -113 14l25 139q37 -16 84 -16q54 0 88 22.5t59 81.5l66 150z" />
    <glyph glyph-name="z" unicode="z" horiz-adv-x="966" 
d="M106 0v119l545 735h-545v135h746v-117l-549 -739h557v-133h-754z" />
    <glyph glyph-name="braceleft" unicode="{" horiz-adv-x="532" 
d="M10 449v102q52 0 79.5 40t27.5 101v420q0 122 77 199.5t179 77.5h125v-113h-125q-56 0 -95.5 -46.5t-39.5 -117.5v-432q0 -139 -95 -180q95 -41 95 -181v-432q0 -70 39.5 -116.5t95.5 -46.5h125v-113h-125q-102 0 -179 76.5t-77 197.5v422q0 61 -28 101.5t-79 40.5z" />
    <glyph glyph-name="bar" unicode="|" horiz-adv-x="432" 
d="M160 -41v1448h112v-1448h-112z" />
    <glyph glyph-name="braceright" unicode="}" horiz-adv-x="532" 
d="M35 -276h125q56 0 95.5 46.5t39.5 116.5v432q0 141 94 181q-94 40 -94 180v432q0 71 -39.5 117.5t-95.5 46.5h-125v113h125q103 0 179.5 -77t76.5 -200v-420q0 -61 27.5 -101t78.5 -40v-102q-51 0 -78.5 -40.5t-27.5 -101.5v-422q0 -121 -76.5 -197.5t-179.5 -76.5h-125
v113z" />
    <glyph glyph-name="asciitilde" unicode="~" horiz-adv-x="1030" 
d="M55 879q8 81 19 146.5t32.5 131t51.5 109t76 71t104 27.5q42 0 76 -15t55 -33.5t41.5 -55.5t29.5 -59.5t25 -67.5q14 -41 22.5 -62.5t24 -48t34.5 -38t44 -11.5q134 0 168 393l115 -14q-6 -67 -15 -122t-23 -113t-35.5 -101t-50 -78t-69 -53.5t-90.5 -18.5q-30 0 -56 8
t-44 18.5t-36.5 32.5t-28.5 36t-24 45.5t-18.5 44.5t-17.5 47t-19 49.5t-18.5 41t-23.5 36.5t-28.5 20.5t-37.5 9.5q-36 0 -64.5 -28.5t-48.5 -82.5t-33 -122t-22 -158z" />
    <glyph glyph-name="uni00A0" unicode="&#xa0;" horiz-adv-x="528" 
 />
    <glyph glyph-name="exclamdown" unicode="&#xa1;" horiz-adv-x="471" 
d="M123 897q0 45 34 79t79 34t78.5 -34t33.5 -79q0 -46 -33 -79.5t-79 -33.5t-79.5 33.5t-33.5 79.5zM141 -377l31 983h127l33 -983h-191z" />
    <glyph glyph-name="cent" unicode="&#xa2;" horiz-adv-x="1013" 
d="M96 496q0 201 115.5 343.5t304.5 168.5v149h121v-145q192 -15 315 -170l-102 -94q-81 110 -213 126v-759q129 12 213 127l102 -95q-120 -155 -315 -170v-182h-121v187q-189 25 -304.5 167.5t-115.5 346.5zM256 496q0 -144 69.5 -245.5t190.5 -129.5v745
q-121 -28 -190.5 -128t-69.5 -242z" />
    <glyph glyph-name="sterling" unicode="&#xa3;" horiz-adv-x="1060" 
d="M39 549v110h217q-5 3 -14 17q-36 42 -54 65.5t-43 64.5t-36 84t-11 93q0 110 62.5 203t168 146.5t228.5 53.5q140 0 248.5 -60t165.5 -169l-137 -82q-28 69 -100 118.5t-161 49.5q-122 0 -207 -71.5t-85 -190.5q0 -42 9 -79t30 -72.5t36 -55.5t45 -57l43 -58h310v-110
h-250q14 -47 14 -88q0 -161 -156 -271q55 19 107 19q70 0 162 -45q84 -39 141 -39q62 0 116 25.5t79 56.5l73 -137q-101 -97 -276 -97q-45 0 -84.5 8t-61.5 17t-55 25q-31 15 -49 22.5t-50 15t-67 7.5q-84 0 -241 -82l-62 127q131 59 202 140t71 173q0 59 -31 123h-297z" />
    <glyph glyph-name="currency" unicode="&#xa4;" horiz-adv-x="1224" 
d="M55 1145l97 94l159 -162q127 94 301 94q175 0 299 -94l160 160l94 -94l-159 -160q96 -129 96 -301q0 -169 -94 -303l157 -156l-94 -92l-158 154q-129 -95 -301 -95q-173 0 -305 97l-153 -156l-97 92l158 158q-92 131 -92 301q0 175 94 301zM281 682q0 -146 89 -249
t242 -103q154 0 243 103t89 249q0 145 -89 246.5t-243 101.5q-153 0 -242 -102t-89 -246z" />
    <glyph glyph-name="yen" unicode="&#xa5;" horiz-adv-x="1282" 
d="M18 1366h199l424 -635l424 635h199l-465 -682h440v-106h-512v-220h512v-108h-512v-250h-170v250h-512v108h512v220h-512v106h438z" />
    <glyph glyph-name="brokenbar" unicode="&#xa6;" horiz-adv-x="432" 
d="M160 -41v647h112v-647h-112zM160 760v647h112v-647h-112z" />
    <glyph glyph-name="section" unicode="&#xa7;" horiz-adv-x="958" 
d="M70 -6l77 100q51 -62 135 -104.5t185 -42.5q108 0 174 47.5t66 130.5q0 24 -8 44.5t-19 35.5t-34 29t-40 22.5t-50.5 19.5t-53 16l-58.5 15q-40 10 -56.5 14.5t-54 16t-55 19t-48 22t-46 28t-36 34t-30 42t-17 50.5t-7.5 61q0 102 67 168.5t169 93.5q-115 36 -175.5 96
t-60.5 156q0 118 100 198t269 80q238 0 364 -145l-69 -92q-50 60 -128.5 91.5t-162.5 31.5q-99 0 -161 -45t-62 -119q0 -19 4.5 -35t16.5 -29t22.5 -23t32 -19.5t36 -16t43.5 -14t44.5 -11.5t48.5 -12q47 -11 74.5 -18t71 -21t70 -28t58 -37.5t49 -50.5t29.5 -65t12 -83
q0 -179 -188 -262q91 -34 139.5 -93.5t48.5 -154.5q0 -140 -107 -220.5t-282 -80.5q-137 0 -228.5 42.5t-168.5 117.5zM244 610q0 -53 43.5 -90.5t86 -51.5t134.5 -37q18 -5 27 -7q86 37 128 84.5t42 116.5q0 34 -14 62.5t-34.5 47t-54 34.5t-61.5 25t-68 19
q-126 -32 -177.5 -82t-51.5 -121z" />
    <glyph glyph-name="dieresis" unicode="&#xa8;" horiz-adv-x="557" 
d="M-29 1237q0 38 28.5 66t68.5 28q38 0 66 -28t28 -66q0 -40 -28 -68t-66 -28q-40 0 -68.5 28t-28.5 68zM393 1237q0 38 29 66t67 28q39 0 68 -28t29 -66q0 -39 -29 -67.5t-68 -28.5t-67.5 28.5t-28.5 67.5z" />
    <glyph glyph-name="copyright" unicode="&#xa9;" horiz-adv-x="1593" 
d="M90 684q0 192 95 355t258 257.5t354 94.5q144 0 275 -56t225 -150.5t150 -225.5t56 -275q0 -143 -56 -274t-150 -226t-225 -151t-275 -56q-191 0 -354 95t-258 258t-95 354zM154 684q0 -174 86.5 -322t234.5 -234.5t322 -86.5t322 86.5t234.5 234.5t86.5 322t-86.5 322
t-234.5 234.5t-322 86.5t-322 -86.5t-234.5 -234.5t-86.5 -322zM375 686q0 186 124 311t302 125q183 0 299 -135l-51 -49q-39 54 -107 85.5t-141 31.5q-143 0 -246.5 -104t-103.5 -265q0 -158 104.5 -264.5t245.5 -106.5q73 0 140.5 32.5t107.5 86.5l53 -51
q-116 -135 -301 -135q-178 0 -302 126t-124 312z" />
    <glyph glyph-name="ordfeminine" unicode="&#xaa;" horiz-adv-x="774" 
d="M84 864q0 100 68.5 155.5t160.5 55.5q136 0 219 -86v113q0 61 -46.5 97t-114.5 36q-122 0 -203 -94l-51 76q107 110 268 110q116 0 190 -55t74 -172v-432h-117v71q-81 -88 -219 -88q-91 0 -160 58t-69 155zM203 864q0 -61 43.5 -98t111.5 -37q53 0 99.5 21t74.5 57v115
q-27 36 -74 56.5t-100 20.5q-68 0 -111.5 -37.5t-43.5 -97.5z" />
    <glyph glyph-name="guillemotleft" unicode="&#xab;" horiz-adv-x="899" 
d="M61 498l328 362h154l-328 -362l328 -369h-154zM356 498l328 362h154l-328 -362l328 -369h-154z" />
    <glyph glyph-name="logicalnot" unicode="&#xac;" horiz-adv-x="1032" 
d="M59 827v109h904v-504h-113v395h-791z" />
    <glyph glyph-name="uni00AD" unicode="&#xad;" horiz-adv-x="614" 
d="M61 428v135h492v-135h-492z" />
    <glyph glyph-name="registered" unicode="&#xae;" horiz-adv-x="1011" 
d="M72 952q0 181 127 307.5t307 126.5q119 0 219 -57.5t157.5 -157.5t57.5 -219q0 -180 -126.5 -307t-307.5 -127q-180 0 -307 127t-127 307zM129 952q0 -156 110.5 -266.5t266.5 -110.5q155 0 265 111t110 266q0 156 -109.5 265.5t-265.5 109.5q-157 0 -267 -109t-110 -266
zM340 702v498h203q65 0 111 -42t46 -109q0 -72 -46 -110t-81 -38l134 -199h-82l-129 197h-90v-197h-66zM406 958h137q34 0 62 27t28 64q0 40 -28 67t-62 27h-137v-185z" />
    <glyph glyph-name="macron" unicode="&#xaf;" horiz-adv-x="743" 
d="M0 1171v99h743v-99h-743z" />
    <glyph glyph-name="degree" unicode="&#xb0;" horiz-adv-x="593" 
d="M47 1137q0 103 72.5 176t175.5 73q104 0 178 -73t74 -176q0 -104 -74 -177t-178 -73q-103 0 -175.5 73t-72.5 177zM147 1137q0 -63 43.5 -107.5t104.5 -44.5q63 0 108.5 44.5t45.5 107.5q0 62 -45.5 106.5t-108.5 44.5q-61 0 -104.5 -44.5t-43.5 -106.5z" />
    <glyph glyph-name="plusminus" unicode="&#xb1;" horiz-adv-x="1021" 
d="M59 0v106h904v-106h-904zM59 664v106h394v424h116v-424h394v-106h-394v-439h-116v439h-394z" />
    <glyph glyph-name="uni00B2" unicode="&#xb2;" horiz-adv-x="794" 
d="M100 1565q50 63 130 96t171 33q122 0 207.5 -62.5t85.5 -179.5q0 -115 -102.5 -228t-308.5 -261h415v-101h-596v92q254 181 361.5 288.5t107.5 201.5q0 73 -51 111t-123 38q-73 0 -134 -30t-95 -76z" />
    <glyph glyph-name="uni00B3" unicode="&#xb3;" horiz-adv-x="794" 
d="M86 981l66 78q42 -52 104.5 -81.5t132.5 -29.5q89 0 140 39t51 105q0 74 -58 107.5t-155 33.5q-70 0 -82 -2v102q14 -2 80 -2q200 0 200 131q0 61 -52 96t-130 35q-133 0 -223 -100l-64 74q111 127 297 127q132 0 213.5 -59.5t81.5 -159.5q0 -81 -55.5 -130t-126.5 -61
q70 -5 133 -57.5t63 -141.5q0 -105 -84 -171t-225 -66q-105 0 -185 37t-122 96z" />
    <glyph glyph-name="acute" unicode="&#xb4;" horiz-adv-x="462" 
d="M0 1139l303 295h160l-346 -295h-117z" />
    <glyph glyph-name="uni00B5" unicode="&#xb5;" horiz-adv-x="1157" 
d="M154 -377v1366h153v-651q0 -229 225 -229q84 0 164 44.5t125 108.5v727h154v-758q0 -55 25 -86.5t71 -31.5q23 0 39 4l12 -133q-52 -9 -82 -9q-181 0 -213 177q-56 -77 -139 -127t-174 -50q-153 0 -207 99v-451h-153z" />
    <glyph glyph-name="paragraph" unicode="&#xb6;" horiz-adv-x="919" 
d="M55 1014q0 146 103.5 249t249.5 103h366v-1571h-92v1479h-182v-1479h-92v867q-146 0 -249.5 103t-103.5 249z" />
    <glyph glyph-name="periodcentered" unicode="&#xb7;" horiz-adv-x="471" 
d="M123 500q0 46 33.5 79t79.5 33t79 -33t33 -79q0 -44 -33 -77.5t-79 -33.5t-79.5 33.5t-33.5 77.5z" />
    <glyph glyph-name="cedilla" unicode="&#xb8;" horiz-adv-x="419" 
d="M0 -330l39 78q71 -59 164 -59q52 0 88.5 23t36.5 63q0 33 -19.5 52t-56.5 19q-47 0 -78 -34l-68 38l64 173h92l-53 -136q33 23 76 23q59 0 97 -37.5t38 -99.5q0 -73 -61.5 -118.5t-151.5 -45.5q-63 0 -118.5 17.5t-88.5 43.5z" />
    <glyph glyph-name="uni00B9" unicode="&#xb9;" horiz-adv-x="481" 
d="M29 1456l221 225h108v-819h-122v660l-136 -142z" />
    <glyph glyph-name="ordmasculine" unicode="&#xba;" horiz-adv-x="829" 
d="M82 989q0 143 91.5 240.5t240.5 97.5q151 0 242.5 -97t91.5 -241t-91.5 -241t-242.5 -97q-149 0 -240.5 97.5t-91.5 240.5zM205 989q0 -104 56 -171.5t153 -67.5q99 0 156 67.5t57 171.5q0 103 -57 169.5t-156 66.5q-97 0 -153 -66.5t-56 -169.5z" />
    <glyph glyph-name="guillemotright" unicode="&#xbb;" horiz-adv-x="899" 
d="M61 129l328 369l-328 362h154l328 -362l-328 -369h-154zM356 129l328 369l-328 362h154l328 -362l-328 -369h-154z" />
    <glyph glyph-name="onequarter" unicode="&#xbc;" horiz-adv-x="1576" 
d="M29 1141l221 225h108v-819h-122v659l-136 -141zM221 0l873 1366h114l-874 -1366h-113zM860 205v90l352 524h170v-514h119v-100h-119v-205h-120v205h-402zM983 305h279v406z" />
    <glyph glyph-name="onehalf" unicode="&#xbd;" horiz-adv-x="1652" 
d="M29 1141l221 225h108v-819h-122v659l-136 -141zM221 0l873 1366h114l-874 -1366h-113zM956 702q50 63 130 96t171 33q122 0 207.5 -62t85.5 -179q0 -60 -28.5 -120.5t-87.5 -123t-127 -118.5t-168 -128h415v-100h-596v92q254 181 361.5 288.5t107.5 201.5q0 73 -51 111
t-123 38q-73 0 -134 -30t-95 -76z" />
    <glyph glyph-name="threequarters" unicode="&#xbe;" horiz-adv-x="1798" 
d="M86 666l66 77q42 -51 104.5 -80.5t132.5 -29.5q89 0 140 38.5t51 104.5q0 74 -58 108t-155 34q-64 0 -82 -3v103q14 -2 80 -2q200 0 200 131q0 61 -52 96t-130 35q-133 0 -223 -100l-64 73q111 127 297 127q132 0 213.5 -59.5t81.5 -159.5q0 -81 -55.5 -129.5
t-126.5 -60.5q70 -5 133 -57.5t63 -141.5q0 -106 -84 -172t-225 -66q-105 0 -185 37.5t-122 96.5zM442 0l873 1366h115l-875 -1366h-113zM1083 205v90l353 524h170v-514h118v-100h-118v-205h-121v205h-402zM1206 305h279v406z" />
    <glyph glyph-name="questiondown" unicode="&#xbf;" horiz-adv-x="806" 
d="M63 -84q0 49 14.5 93t34 74.5t54.5 64t60 51.5t67 47t64.5 46.5t50 44.5t39.5 55.5t12 60.5q0 25 -14.5 52.5t-38.5 45.5l122 55q80 -71 80 -168q0 -49 -15 -89t-49.5 -76t-58 -55t-73.5 -54q-42 -29 -65.5 -47.5t-52 -47.5t-41.5 -61t-13 -69q0 -80 62.5 -134.5
t176.5 -54.5q111 0 189 42.5t139 123.5l100 -109q-158 -208 -442 -208q-183 0 -292.5 90.5t-109.5 226.5zM375 895q0 46 33.5 80.5t78.5 34.5q46 0 79.5 -34.5t33.5 -80.5q0 -44 -33.5 -77.5t-79.5 -33.5q-45 0 -78.5 33t-33.5 78z" />
    <glyph glyph-name="Agrave" unicode="&#xc0;" horiz-adv-x="1347" 
d="M18 0l549 1366h211l551 -1366h-194l-121 303h-680l-121 -303h-195zM328 1776h159l304 -295h-117zM383 455h580l-289 735z" />
    <glyph glyph-name="Aacute" unicode="&#xc1;" horiz-adv-x="1347" 
d="M18 0l549 1366h211l551 -1366h-194l-121 303h-680l-121 -303h-195zM383 455h580l-289 735zM557 1481l303 295h160l-346 -295h-117z" />
    <glyph glyph-name="Acircumflex" unicode="&#xc2;" horiz-adv-x="1347" 
d="M18 0l549 1366h211l551 -1366h-194l-121 303h-680l-121 -303h-195zM383 455h580l-289 735zM406 1481l194 295h148l200 -295h-104l-170 217l-164 -217h-104z" />
    <glyph glyph-name="Atilde" unicode="&#xc3;" horiz-adv-x="1347" 
d="M18 0l549 1366h211l551 -1366h-194l-121 303h-680l-121 -303h-195zM354 1489q0 123 52.5 198.5t146.5 75.5q29 0 52.5 -8.5t43.5 -28t29.5 -32t28.5 -39.5q37 -52 55 -65q20 -15 43 -15q44 0 71 44t27 132h92q0 -123 -52 -198.5t-146 -75.5q-38 0 -70 18.5t-47 36.5
t-39 53q-19 29 -28 41t-28 25.5t-40 13.5q-44 0 -71.5 -44t-27.5 -132h-92zM383 455h580l-289 735z" />
    <glyph glyph-name="Adieresis" unicode="&#xc4;" horiz-adv-x="1347" 
d="M18 0l549 1366h211l551 -1366h-194l-121 303h-680l-121 -303h-195zM369 1579q0 38 28 66t68 28q38 0 66 -28t28 -66q0 -40 -28 -68t-66 -28q-40 0 -68 28t-28 68zM383 455h580l-289 735zM791 1579q0 38 29 66t67 28t67 -28t29 -66q0 -39 -28.5 -67.5t-67.5 -28.5
t-67.5 28.5t-28.5 67.5z" />
    <glyph glyph-name="Aring" unicode="&#xc5;" horiz-adv-x="1347" 
d="M18 0l549 1366h211l551 -1366h-194l-121 303h-680l-121 -303h-195zM383 455h580l-289 735zM473 1614q0 83 59 143t142 60t141.5 -59.5t58.5 -143.5q0 -83 -58.5 -142t-141.5 -59t-142 59t-59 142zM555 1614q0 -50 35 -85.5t84 -35.5q50 0 84.5 35.5t34.5 85.5
q0 51 -34 86t-85 35q-50 0 -84.5 -35t-34.5 -86z" />
    <glyph glyph-name="AE" unicode="&#xc6;" horiz-adv-x="1939" 
d="M14 0l852 1366h963v-152h-725v-440h711v-151h-711v-471h725v-152h-895v303h-539l-186 -303h-195zM479 455h455v735z" />
    <glyph glyph-name="Ccedilla" unicode="&#xc7;" horiz-adv-x="1384" 
d="M104 682q0 154 55 287t149 224.5t223.5 143.5t275.5 52q326 0 518 -271l-143 -80q-60 89 -160.5 144t-214.5 55q-148 0 -268 -70t-189 -197.5t-69 -287.5q0 -159 69 -286.5t189 -198t268 -70.5q115 0 215 54.5t160 144.5l145 -80q-196 -263 -500 -271l-30 -79
q31 22 75 22q59 0 97.5 -37.5t38.5 -99.5q0 -73 -61.5 -118.5t-151.5 -45.5q-63 0 -118.5 17.5t-88.5 43.5l39 78q71 -59 164 -59q52 0 88 23t36 63q0 33 -19 52.5t-56 19.5q-46 0 -78 -35l-68 39l43 121q-134 12 -250.5 68t-201 146t-133 216.5t-48.5 271.5z" />
    <glyph glyph-name="Egrave" unicode="&#xc8;" horiz-adv-x="1165" 
d="M160 0v1366h895v-152h-725v-440h710v-151h-710v-471h725v-152h-895zM260 1776h160l303 -295h-117z" />
    <glyph glyph-name="Eacute" unicode="&#xc9;" horiz-adv-x="1165" 
d="M160 0v1366h895v-152h-725v-440h710v-151h-710v-471h725v-152h-895zM489 1481l304 295h159l-346 -295h-117z" />
    <glyph glyph-name="Ecircumflex" unicode="&#xca;" horiz-adv-x="1165" 
d="M160 0v1366h895v-152h-725v-440h710v-151h-710v-471h725v-152h-895zM334 1481l194 295h148l201 -295h-105l-170 217l-164 -217h-104z" />
    <glyph glyph-name="Edieresis" unicode="&#xcb;" horiz-adv-x="1165" 
d="M160 0v1366h895v-152h-725v-440h710v-151h-710v-471h725v-152h-895zM299 1579q0 38 28 66t68 28q38 0 66 -28t28 -66q0 -40 -28 -68t-66 -28q-40 0 -68 28t-28 68zM721 1579q0 38 29 66t67 28t67 -28t29 -66q0 -39 -28.5 -67.5t-67.5 -28.5t-67.5 28.5t-28.5 67.5z" />
    <glyph glyph-name="Igrave" unicode="&#xcc;" horiz-adv-x="489" 
d="M-102 1776h159l303 -295h-116zM160 0v1366h170v-1366h-170z" />
    <glyph glyph-name="Iacute" unicode="&#xcd;" horiz-adv-x="489" 
d="M129 1481l303 295h160l-346 -295h-117zM160 0v1366h170v-1366h-170z" />
    <glyph glyph-name="Icircumflex" unicode="&#xce;" horiz-adv-x="489" 
d="M-25 1481l195 295h147l201 -295h-104l-170 217l-164 -217h-105zM160 0v1366h170v-1366h-170z" />
    <glyph glyph-name="Idieresis" unicode="&#xcf;" horiz-adv-x="489" 
d="M-61 1579q0 38 28 66t68 28q38 0 66 -28t28 -66q0 -40 -28 -68t-66 -28q-40 0 -68 28t-28 68zM160 0v1366h170v-1366h-170zM360 1579q0 38 29 66t68 28q38 0 67 -28t29 -66q0 -39 -28.5 -67.5t-67.5 -28.5t-68 28.5t-29 67.5z" />
    <glyph glyph-name="Eth" unicode="&#xd0;" horiz-adv-x="1490" 
d="M20 612v125h197v629h467q208 0 368.5 -90.5t246 -245.5t85.5 -348q0 -145 -50 -270.5t-140.5 -216.5t-222 -143t-287.5 -52h-467v612h-197zM387 152h297q161 0 282 72t181.5 191t60.5 267q0 150 -59.5 269t-180 191t-284.5 72h-297v-477h346v-125h-346v-460z" />
    <glyph glyph-name="Ntilde" unicode="&#xd1;" horiz-adv-x="1449" 
d="M160 0v1366h174l786 -1067v1067h170v-1366h-164l-796 1090v-1090h-170zM401 1489q0 123 52.5 198.5t146.5 75.5q29 0 52.5 -8.5t43.5 -28t29.5 -32t28.5 -39.5q37 -52 55 -65q20 -15 43 -15q44 0 71 44t27 132h92q0 -123 -52 -198.5t-146 -75.5q-38 0 -70 18.5t-47 36.5
t-39 53q-19 29 -28 41t-28 25.5t-40 13.5q-44 0 -71 -44t-27 -132h-93z" />
    <glyph glyph-name="Ograve" unicode="&#xd2;" horiz-adv-x="1566" 
d="M104 682q0 200 84 361t239.5 253.5t354.5 92.5q198 0 353.5 -92.5t240 -253.5t84.5 -361t-84.5 -361t-240 -253.5t-353.5 -92.5q-199 0 -354.5 92.5t-239.5 253.5t-84 361zM281 682q0 -158 60.5 -284t175.5 -198.5t265 -72.5q149 0 264.5 72.5t176.5 198.5t61 284
q0 159 -61 285t-176 198t-265 72q-227 0 -364 -156t-137 -399zM438 1776h160l303 -295h-117z" />
    <glyph glyph-name="Oacute" unicode="&#xd3;" horiz-adv-x="1566" 
d="M104 682q0 200 84 361t239.5 253.5t354.5 92.5q198 0 353.5 -92.5t240 -253.5t84.5 -361t-84.5 -361t-240 -253.5t-353.5 -92.5q-199 0 -354.5 92.5t-239.5 253.5t-84 361zM281 682q0 -158 60.5 -284t175.5 -198.5t265 -72.5q149 0 264.5 72.5t176.5 198.5t61 284
q0 159 -61 285t-176 198t-265 72q-227 0 -364 -156t-137 -399zM668 1481l303 295h159l-346 -295h-116z" />
    <glyph glyph-name="Ocircumflex" unicode="&#xd4;" horiz-adv-x="1566" 
d="M104 682q0 200 84 361t239.5 253.5t354.5 92.5q198 0 353.5 -92.5t240 -253.5t84.5 -361t-84.5 -361t-240 -253.5t-353.5 -92.5q-199 0 -354.5 92.5t-239.5 253.5t-84 361zM281 682q0 -158 60.5 -284t175.5 -198.5t265 -72.5q149 0 264.5 72.5t176.5 198.5t61 284
q0 159 -61 285t-176 198t-265 72q-227 0 -364 -156t-137 -399zM516 1481l195 295h147l201 -295h-105l-170 217l-163 -217h-105z" />
    <glyph glyph-name="Otilde" unicode="&#xd5;" horiz-adv-x="1566" 
d="M104 682q0 200 84 361t239.5 253.5t354.5 92.5q198 0 353.5 -92.5t240 -253.5t84.5 -361t-84.5 -361t-240 -253.5t-353.5 -92.5q-199 0 -354.5 92.5t-239.5 253.5t-84 361zM281 682q0 -158 60.5 -284t175.5 -198.5t265 -72.5q149 0 264.5 72.5t176.5 198.5t61 284
q0 159 -61 285t-176 198t-265 72q-227 0 -364 -156t-137 -399zM463 1489q0 123 52.5 198.5t146.5 75.5q29 0 52 -8t43.5 -28t29.5 -32t28 -40q37 -52 55 -65q20 -15 43 -15q44 0 71.5 44t27.5 132h92q0 -123 -52.5 -198.5t-146.5 -75.5q-29 0 -52.5 8.5t-43.5 27.5t-30.5 32
t-28.5 40q-18 28 -28 40.5t-29 26t-40 13.5q-44 0 -71 -44t-27 -132h-92z" />
    <glyph glyph-name="Odieresis" unicode="&#xd6;" horiz-adv-x="1566" 
d="M104 682q0 200 84 361t239.5 253.5t354.5 92.5q198 0 353.5 -92.5t240 -253.5t84.5 -361t-84.5 -361t-240 -253.5t-353.5 -92.5q-199 0 -354.5 92.5t-239.5 253.5t-84 361zM281 682q0 -158 60.5 -284t175.5 -198.5t265 -72.5q149 0 264.5 72.5t176.5 198.5t61 284
q0 159 -61 285t-176 198t-265 72q-227 0 -364 -156t-137 -399zM475 1579q0 38 28 66t68 28q38 0 66.5 -28t28.5 -66q0 -39 -28 -67.5t-67 -28.5q-40 0 -68 28t-28 68zM897 1579q0 38 29 66t67 28q39 0 68 -28t29 -66q0 -39 -29 -67.5t-68 -28.5t-67.5 28.5t-28.5 67.5z" />
    <glyph glyph-name="multiply" unicode="&#xd7;" horiz-adv-x="1021" 
d="M131 379l303 305l-303 303l76 78l303 -305l305 305l76 -78l-303 -303l303 -305l-76 -76l-305 305l-303 -305z" />
    <glyph glyph-name="Oslash" unicode="&#xd8;" horiz-adv-x="1566" 
d="M104 682q0 200 84 361t239.5 253.5t354.5 92.5q189 0 342 -86l43 63h136l-86 -127q116 -96 179.5 -240.5t63.5 -316.5q0 -200 -84.5 -361t-240 -253.5t-353.5 -92.5q-196 0 -354 93l-45 -68h-135l90 133q-111 96 -172.5 238t-61.5 311zM281 682q0 -126 38.5 -232
t110.5 -180l606 901q-116 66 -254 66q-227 0 -364 -156t-137 -399zM516 199q113 -72 266 -72q149 0 264.5 72.5t176.5 198.5t61 284q0 129 -41.5 237.5t-118.5 182.5z" />
    <glyph glyph-name="Ugrave" unicode="&#xd9;" horiz-adv-x="1433" 
d="M160 530v836h170v-831q0 -190 100.5 -299t286.5 -109t286.5 109t100.5 299v831h170v-834q0 -261 -142 -409t-415 -148q-272 0 -414.5 148.5t-142.5 406.5zM371 1776h159l304 -295h-117z" />
    <glyph glyph-name="Uacute" unicode="&#xda;" horiz-adv-x="1433" 
d="M160 530v836h170v-831q0 -190 100.5 -299t286.5 -109t286.5 109t100.5 299v831h170v-834q0 -261 -142 -409t-415 -148q-272 0 -414.5 148.5t-142.5 406.5zM600 1481l303 295h160l-346 -295h-117z" />
    <glyph glyph-name="Ucircumflex" unicode="&#xdb;" horiz-adv-x="1433" 
d="M160 530v836h170v-831q0 -190 100.5 -299t286.5 -109t286.5 109t100.5 299v831h170v-834q0 -261 -142 -409t-415 -148q-272 0 -414.5 148.5t-142.5 406.5zM451 1481l194 295h148l200 -295h-104l-170 217l-164 -217h-104z" />
    <glyph glyph-name="Udieresis" unicode="&#xdc;" horiz-adv-x="1433" 
d="M160 530v836h170v-831q0 -190 100.5 -299t286.5 -109t286.5 109t100.5 299v831h170v-834q0 -261 -142 -409t-415 -148q-272 0 -414.5 148.5t-142.5 406.5zM412 1579q0 38 28 66t68 28q38 0 66 -28t28 -66q0 -40 -28 -68t-66 -28q-40 0 -68 28t-28 68zM834 1579
q0 38 29 66t67 28t67 -28t29 -66q0 -39 -28.5 -67.5t-67.5 -28.5t-67.5 28.5t-28.5 67.5z" />
    <glyph glyph-name="Yacute" unicode="&#xdd;" horiz-adv-x="1282" 
d="M18 1366h199l424 -635l424 635h199l-537 -788v-578h-170v578zM524 1481l303 295h160l-346 -295h-117z" />
    <glyph glyph-name="Thorn" unicode="&#xde;" horiz-adv-x="1202" 
d="M160 0v1366h170v-244h379q198 0 313 -119t115 -294q0 -174 -116 -292t-312 -118h-379v-299h-170zM330 451h358q122 0 197.5 71.5t75.5 186.5q0 116 -76 189t-197 73h-358v-520z" />
    <glyph glyph-name="germandbls" unicode="&#xdf;" horiz-adv-x="1222" 
d="M154 0v1022q0 155 107.5 259.5t283.5 104.5q147 0 252.5 -71t105.5 -187q0 -35 -11 -66t-24.5 -51.5t-41.5 -44.5t-44.5 -35.5t-50.5 -33.5q-45 -29 -68.5 -47t-45 -50t-21.5 -69q0 -27 13.5 -48t31 -34.5t53.5 -27t60.5 -20t72.5 -17.5q46 -11 72.5 -18t69.5 -21.5
t68.5 -28.5t57 -38t48.5 -51.5t29 -66t12 -84.5q0 -128 -99.5 -214.5t-281.5 -86.5q-136 0 -220.5 41t-160.5 119l78 107q46 -61 126 -101.5t177 -40.5q111 0 171 50.5t60 121.5q0 19 -4.5 36t-16.5 31t-22.5 24.5t-32 21t-35.5 17.5t-43 15.5t-44 13t-48 13.5
q-34 8 -54.5 13.5t-53 15.5t-53 18.5t-47.5 22t-44.5 27.5t-36 34t-29 42.5t-17.5 51t-7 60.5q0 45 15 82.5t44.5 68t54.5 49.5t65 44q33 23 46.5 33t35.5 29t30 37t8 38q0 65 -61.5 102t-140.5 37q-100 0 -168 -62t-68 -165v-1022h-153z" />
    <glyph glyph-name="agrave" unicode="&#xe0;" horiz-adv-x="1079" 
d="M98 303q0 80 30 144t80 102.5t110.5 59t125.5 20.5q211 0 328 -135v178q0 97 -70 153t-180 56q-174 0 -303 -138l-72 107q157 164 396 164q81 0 148.5 -19t121 -57.5t83.5 -104.5t30 -153v-680h-154v113q-126 -138 -328 -138q-87 0 -164 36t-129.5 112.5t-52.5 179.5z
M197 1434h159l303 -295h-116zM256 301q0 -94 68.5 -154.5t175.5 -60.5q84 0 156.5 31.5t115.5 91.5v186q-43 60 -115.5 91.5t-156.5 31.5q-107 0 -175.5 -61t-68.5 -156z" />
    <glyph glyph-name="aacute" unicode="&#xe1;" horiz-adv-x="1079" 
d="M98 303q0 80 30 144t80 102.5t110.5 59t125.5 20.5q211 0 328 -135v178q0 97 -70 153t-180 56q-174 0 -303 -138l-72 107q157 164 396 164q81 0 148.5 -19t121 -57.5t83.5 -104.5t30 -153v-680h-154v113q-126 -138 -328 -138q-87 0 -164 36t-129.5 112.5t-52.5 179.5z
M256 301q0 -94 68.5 -154.5t175.5 -60.5q84 0 156.5 31.5t115.5 91.5v186q-43 60 -115.5 91.5t-156.5 31.5q-107 0 -175.5 -61t-68.5 -156zM426 1139l303 295h160l-346 -295h-117z" />
    <glyph glyph-name="acircumflex" unicode="&#xe2;" horiz-adv-x="1079" 
d="M98 303q0 80 30 144t80 102.5t110.5 59t125.5 20.5q211 0 328 -135v178q0 97 -70 153t-180 56q-174 0 -303 -138l-72 107q157 164 396 164q81 0 148.5 -19t121 -57.5t83.5 -104.5t30 -153v-680h-154v113q-126 -138 -328 -138q-87 0 -164 36t-129.5 112.5t-52.5 179.5z
M256 301q0 -94 68.5 -154.5t175.5 -60.5q84 0 156.5 31.5t115.5 91.5v186q-43 60 -115.5 91.5t-156.5 31.5q-107 0 -175.5 -61t-68.5 -156zM272 1139l195 295h147l201 -295h-104l-170 217l-164 -217h-105z" />
    <glyph glyph-name="atilde" unicode="&#xe3;" horiz-adv-x="1079" 
d="M98 303q0 80 30 144t80 102.5t110.5 59t125.5 20.5q211 0 328 -135v178q0 97 -70 153t-180 56q-174 0 -303 -138l-72 107q157 164 396 164q81 0 148.5 -19t121 -57.5t83.5 -104.5t30 -153v-680h-154v113q-126 -138 -328 -138q-87 0 -164 36t-129.5 112.5t-52.5 179.5z
M223 1147q0 123 52.5 198.5t146.5 75.5q29 0 52 -8t43.5 -28t29.5 -32t28 -40q38 -54 58 -67q19 -13 41 -13q44 0 71 44t27 132h92q0 -123 -52 -198.5t-146 -75.5q-38 0 -70 18.5t-47 36.5t-39 53q-19 29 -28 41t-28 25.5t-40 13.5q-44 0 -71.5 -44t-27.5 -132h-92zM256 301
q0 -94 68.5 -154.5t175.5 -60.5q84 0 156.5 31.5t115.5 91.5v186q-43 60 -115.5 91.5t-156.5 31.5q-107 0 -175.5 -61t-68.5 -156z" />
    <glyph glyph-name="adieresis" unicode="&#xe4;" horiz-adv-x="1079" 
d="M98 303q0 80 30 144t80 102.5t110.5 59t125.5 20.5q211 0 328 -135v178q0 97 -70 153t-180 56q-174 0 -303 -138l-72 107q157 164 396 164q81 0 148.5 -19t121 -57.5t83.5 -104.5t30 -153v-680h-154v113q-126 -138 -328 -138q-87 0 -164 36t-129.5 112.5t-52.5 179.5z
M236 1237q0 38 28 66t68 28q38 0 66 -28t28 -66q0 -40 -28 -68t-66 -28q-40 0 -68 28t-28 68zM256 301q0 -94 68.5 -154.5t175.5 -60.5q84 0 156.5 31.5t115.5 91.5v186q-43 60 -115.5 91.5t-156.5 31.5q-107 0 -175.5 -61t-68.5 -156zM657 1237q0 38 29 66t68 28
q38 0 67 -28t29 -66q0 -39 -28.5 -67.5t-67.5 -28.5t-68 28.5t-29 67.5z" />
    <glyph glyph-name="aring" unicode="&#xe5;" horiz-adv-x="1079" 
d="M98 303q0 80 30 144t80 102.5t110.5 59t125.5 20.5q211 0 328 -135v178q0 97 -70 153t-180 56q-174 0 -303 -138l-72 107q157 164 396 164q81 0 148.5 -19t121 -57.5t83.5 -104.5t30 -153v-680h-154v113q-126 -138 -328 -138q-87 0 -164 36t-129.5 112.5t-52.5 179.5z
M256 301q0 -94 68.5 -154.5t175.5 -60.5q84 0 156.5 31.5t115.5 91.5v186q-43 60 -115.5 91.5t-156.5 31.5q-107 0 -175.5 -61t-68.5 -156zM342 1313q0 83 59 143t142 60t141.5 -59.5t58.5 -143.5q0 -83 -58.5 -142t-141.5 -59t-142 59t-59 142zM424 1313q0 -50 35 -85.5
t84 -35.5q50 0 84.5 35.5t34.5 85.5q0 51 -34 86t-85 35q-50 0 -84.5 -35t-34.5 -86z" />
    <glyph glyph-name="ae" unicode="&#xe6;" horiz-adv-x="1820" 
d="M98 303q0 103 51.5 178.5t133 111.5t180.5 36q230 0 358 -131v176q0 97 -74.5 152t-197.5 55q-192 0 -330 -138l-72 107q161 164 420 164q84 0 154.5 -21.5t124.5 -71t72 -122.5q56 97 147.5 156t218.5 59q138 0 239.5 -71.5t152 -190.5t50.5 -269v-39h-751
q11 -146 99 -242t231 -96q81 0 155 32t129 93l74 -104q-72 -73 -166.5 -112.5t-198.5 -39.5q-279 0 -395 238q-53 -107 -162.5 -172.5t-244.5 -65.5q-109 0 -198 36.5t-144.5 112t-55.5 179.5zM256 311q0 -93 73.5 -149t194.5 -56q126 0 211.5 80.5t85.5 182.5v24
q-50 59 -129 92t-168 33q-120 0 -194 -57t-74 -150zM975 557h600q-1 58 -18.5 114t-52 105.5t-94.5 80t-136 30.5q-70 0 -127.5 -30t-93.5 -78.5t-56 -105.5t-22 -116z" />
    <glyph glyph-name="ccedilla" unicode="&#xe7;" horiz-adv-x="1013" 
d="M96 496q0 146 61.5 263.5t174.5 186t258 68.5q229 0 362 -172l-102 -94q-95 129 -252 129q-156 0 -249 -107t-93 -274t93 -275t249 -108q155 0 252 129l102 -95q-59 -75 -136.5 -119t-188.5 -51l-33 -86q33 23 76 23q59 0 97 -37.5t38 -99.5q0 -73 -61.5 -118.5
t-151.5 -45.5q-63 0 -118.5 17.5t-88.5 43.5l39 78q71 -59 164 -59q52 0 88.5 23t36.5 63q0 33 -19.5 52t-56.5 19q-47 0 -78 -34l-67 39l45 125q-197 19 -319 162.5t-122 353.5z" />
    <glyph glyph-name="egrave" unicode="&#xe8;" horiz-adv-x="1153" 
d="M96 496q0 142 62.5 260.5t174.5 188t251 69.5q146 0 255 -71t164.5 -190.5t55.5 -269.5v-39h-801q9 -145 105.5 -243.5t250.5 -98.5q86 0 167 33t139 92l73 -100q-152 -152 -393 -152q-221 0 -362.5 145t-141.5 376zM238 1434h159l303 -295h-116zM258 557h649
q-1 58 -20.5 114t-57.5 105.5t-102 80t-145 30.5q-76 0 -138 -30t-100.5 -78.5t-60.5 -105.5t-25 -116z" />
    <glyph glyph-name="eacute" unicode="&#xe9;" horiz-adv-x="1153" 
d="M96 496q0 142 62.5 260.5t174.5 188t251 69.5q146 0 255 -71t164.5 -190.5t55.5 -269.5v-39h-801q9 -145 105.5 -243.5t250.5 -98.5q86 0 167 33t139 92l73 -100q-152 -152 -393 -152q-221 0 -362.5 145t-141.5 376zM258 557h649q-1 58 -20.5 114t-57.5 105.5t-102 80
t-145 30.5q-76 0 -138 -30t-100.5 -78.5t-60.5 -105.5t-25 -116zM467 1139l303 295h160l-346 -295h-117z" />
    <glyph glyph-name="ecircumflex" unicode="&#xea;" horiz-adv-x="1153" 
d="M96 496q0 142 62.5 260.5t174.5 188t251 69.5q146 0 255 -71t164.5 -190.5t55.5 -269.5v-39h-801q9 -145 105.5 -243.5t250.5 -98.5q86 0 167 33t139 92l73 -100q-152 -152 -393 -152q-221 0 -362.5 145t-141.5 376zM258 557h649q-1 58 -20.5 114t-57.5 105.5t-102 80
t-145 30.5q-76 0 -138 -30t-100.5 -78.5t-60.5 -105.5t-25 -116zM315 1139l195 295h147l201 -295h-104l-170 217l-164 -217h-105z" />
    <glyph glyph-name="edieresis" unicode="&#xeb;" horiz-adv-x="1153" 
d="M96 496q0 142 62.5 260.5t174.5 188t251 69.5q146 0 255 -71t164.5 -190.5t55.5 -269.5v-39h-801q9 -145 105.5 -243.5t250.5 -98.5q86 0 167 33t139 92l73 -100q-152 -152 -393 -152q-221 0 -362.5 145t-141.5 376zM258 557h649q-1 58 -20.5 114t-57.5 105.5t-102 80
t-145 30.5q-76 0 -138 -30t-100.5 -78.5t-60.5 -105.5t-25 -116zM279 1237q0 38 28 66t68 28q38 0 66 -28t28 -66q0 -40 -28 -68t-66 -28q-40 0 -68 28t-28 68zM700 1237q0 38 29 66t68 28q38 0 67 -28t29 -66q0 -39 -28.5 -67.5t-67.5 -28.5t-68 28.5t-29 67.5z" />
    <glyph glyph-name="igrave" unicode="&#xec;" horiz-adv-x="460" 
d="M-117 1434h160l303 -295h-117zM154 0v989h153v-989h-153z" />
    <glyph glyph-name="iacute" unicode="&#xed;" horiz-adv-x="460" 
d="M115 1139l303 295h160l-347 -295h-116zM154 0v989h153v-989h-153z" />
    <glyph glyph-name="icircumflex" unicode="&#xee;" horiz-adv-x="460" 
d="M-41 1139l195 295h147l201 -295h-105l-170 217l-164 -217h-104zM154 0v989h153v-989h-153z" />
    <glyph glyph-name="idieresis" unicode="&#xef;" horiz-adv-x="460" 
d="M-76 1237q0 38 28 66t68 28q38 0 66.5 -28t28.5 -66q0 -39 -28.5 -67.5t-66.5 -28.5q-40 0 -68 28t-28 68zM154 0v989h153v-989h-153zM346 1237q0 38 29 66t67 28q39 0 68 -28t29 -66q0 -39 -29 -67.5t-68 -28.5t-67.5 28.5t-28.5 67.5z" />
    <glyph glyph-name="eth" unicode="&#xf0;" 
d="M96 479q0 216 127 359t324 143q196 0 323 -182q-102 181 -327 348l-293 -129l-37 86l242 106q-29 19 -85 55t-69 44l84 127q125 -77 229 -156l222 98l34 -84l-176 -77q381 -324 381 -711q0 -233 -133.5 -382t-355.5 -149q-218 0 -354 143t-136 361zM256 479
q0 -153 89 -259.5t241 -106.5t239.5 106t87.5 260q0 98 -37 180t-112.5 133.5t-177.5 51.5q-152 0 -241 -106.5t-89 -258.5z" />
    <glyph glyph-name="ntilde" unicode="&#xf1;" horiz-adv-x="1128" 
d="M154 0v989h153v-143q58 69 153.5 118.5t198.5 49.5q316 0 316 -320v-694h-154v647q0 124 -57 177t-164 53q-86 0 -166.5 -45t-126.5 -109v-723h-153zM246 1147q0 123 52 198.5t146 75.5q29 0 52.5 -8.5t43.5 -28t29.5 -32t28.5 -39.5q37 -52 55 -65q20 -15 43 -15
q44 0 71.5 44t27.5 132h92q0 -123 -52.5 -198.5t-146.5 -75.5q-38 0 -70 18.5t-47 36.5t-39 53q-19 29 -28 41t-28 25.5t-40 13.5q-44 0 -71 -44t-27 -132h-92z" />
    <glyph glyph-name="ograve" unicode="&#xf2;" 
d="M96 496q0 144 59 261t171.5 187t259.5 70t259.5 -70t171 -187t58.5 -261t-58.5 -262t-171 -188.5t-259.5 -70.5t-259.5 70.5t-171.5 188.5t-59 262zM240 1434h159l303 -295h-116zM256 496q0 -160 89 -271.5t241 -111.5q102 0 177.5 54t112.5 139.5t37 189.5
q0 103 -37 188t-112.5 139t-177.5 54t-178.5 -54t-114 -139.5t-37.5 -187.5z" />
    <glyph glyph-name="oacute" unicode="&#xf3;" 
d="M96 496q0 144 59 261t171.5 187t259.5 70t259.5 -70t171 -187t58.5 -261t-58.5 -262t-171 -188.5t-259.5 -70.5t-259.5 70.5t-171.5 188.5t-59 262zM256 496q0 -160 89 -271.5t241 -111.5q102 0 177.5 54t112.5 139.5t37 189.5q0 103 -37 188t-112.5 139t-177.5 54
t-178.5 -54t-114 -139.5t-37.5 -187.5zM469 1139l303 295h160l-346 -295h-117z" />
    <glyph glyph-name="ocircumflex" unicode="&#xf4;" 
d="M96 496q0 144 59 261t171.5 187t259.5 70t259.5 -70t171 -187t58.5 -261t-58.5 -262t-171 -188.5t-259.5 -70.5t-259.5 70.5t-171.5 188.5t-59 262zM256 496q0 -160 89 -271.5t241 -111.5q102 0 177.5 54t112.5 139.5t37 189.5q0 103 -37 188t-112.5 139t-177.5 54
t-178.5 -54t-114 -139.5t-37.5 -187.5zM315 1139l195 295h147l201 -295h-104l-170 217l-164 -217h-105z" />
    <glyph glyph-name="otilde" unicode="&#xf5;" 
d="M96 496q0 144 59 261t171.5 187t259.5 70t259.5 -70t171 -187t58.5 -261t-58.5 -262t-171 -188.5t-259.5 -70.5t-259.5 70.5t-171.5 188.5t-59 262zM256 496q0 -160 89 -271.5t241 -111.5q102 0 177.5 54t112.5 139.5t37 189.5q0 103 -37 188t-112.5 139t-177.5 54
t-178.5 -54t-114 -139.5t-37.5 -187.5zM266 1147q0 123 52.5 198.5t146.5 75.5q29 0 52 -8t43.5 -28t29.5 -32t28 -40q38 -54 58 -67q19 -13 41 -13q44 0 71 44t27 132h92q0 -123 -52 -198.5t-146 -75.5q-38 0 -70 18.5t-47 36.5t-39 53q-19 29 -28 41t-28 25.5t-40 13.5
q-44 0 -71.5 -44t-27.5 -132h-92z" />
    <glyph glyph-name="odieresis" unicode="&#xf6;" 
d="M96 496q0 144 59 261t171.5 187t259.5 70t259.5 -70t171 -187t58.5 -261t-58.5 -262t-171 -188.5t-259.5 -70.5t-259.5 70.5t-171.5 188.5t-59 262zM256 496q0 -160 89 -271.5t241 -111.5q102 0 177.5 54t112.5 139.5t37 189.5q0 103 -37 188t-112.5 139t-177.5 54
t-178.5 -54t-114 -139.5t-37.5 -187.5zM279 1237q0 38 28 66t68 28q38 0 66 -28t28 -66q0 -40 -28 -68t-66 -28q-40 0 -68 28t-28 68zM700 1237q0 38 29 66t68 28q38 0 67 -28t29 -66q0 -39 -28.5 -67.5t-67.5 -28.5t-68 28.5t-29 67.5z" />
    <glyph glyph-name="divide" unicode="&#xf7;" horiz-adv-x="1046" 
d="M59 637v106h928v-106h-928zM430 295q0 38 27 66t65 28q40 0 68 -28t28 -66t-28 -66t-68 -28q-38 0 -65 28t-27 66zM430 1077q0 40 27 67t65 27q40 0 68 -27t28 -67q0 -38 -28 -66t-68 -28q-38 0 -65 28t-27 66z" />
    <glyph glyph-name="oslash" unicode="&#xf8;" 
d="M96 496q0 144 59 261t171.5 187t259.5 70q160 0 280 -84l47 59h111l-92 -117q143 -146 143 -376q0 -144 -58.5 -262t-171 -188.5t-259.5 -70.5q-168 0 -291 93l-53 -68h-111l98 125q-133 145 -133 371zM256 496q0 -142 70 -248l448 567q-78 62 -188 62q-102 0 -178.5 -54
t-114 -139.5t-37.5 -187.5zM385 182q85 -69 201 -69q102 0 177.5 54t112.5 139.5t37 189.5q0 150 -77 256z" />
    <glyph glyph-name="ugrave" unicode="&#xf9;" horiz-adv-x="1128" 
d="M154 291v698h153v-651q0 -124 57 -174.5t164 -50.5q87 0 167.5 43t125.5 106v727h154v-989h-154v139q-62 -70 -155 -117t-197 -47q-315 0 -315 316zM217 1434h160l303 -295h-117z" />
    <glyph glyph-name="uacute" unicode="&#xfa;" horiz-adv-x="1128" 
d="M154 291v698h153v-651q0 -124 57 -174.5t164 -50.5q87 0 167.5 43t125.5 106v727h154v-989h-154v139q-62 -70 -155 -117t-197 -47q-315 0 -315 316zM446 1139l304 295h159l-346 -295h-117z" />
    <glyph glyph-name="ucircumflex" unicode="&#xfb;" horiz-adv-x="1128" 
d="M154 291v698h153v-651q0 -124 57 -174.5t164 -50.5q87 0 167.5 43t125.5 106v727h154v-989h-154v139q-62 -70 -155 -117t-197 -47q-315 0 -315 316zM293 1139l194 295h148l201 -295h-105l-170 217l-164 -217h-104z" />
    <glyph glyph-name="udieresis" unicode="&#xfc;" horiz-adv-x="1128" 
d="M154 291v698h153v-651q0 -124 57 -174.5t164 -50.5q87 0 167.5 43t125.5 106v727h154v-989h-154v139q-62 -70 -155 -117t-197 -47q-315 0 -315 316zM260 1237q0 38 28 66t68 28q38 0 66.5 -28t28.5 -66q0 -39 -28.5 -67.5t-66.5 -28.5q-40 0 -68 28t-28 68zM682 1237
q0 38 29 66t67 28t67 -28t29 -66q0 -39 -28.5 -67.5t-67.5 -28.5t-67.5 28.5t-28.5 67.5z" />
    <glyph glyph-name="yacute" unicode="&#xfd;" horiz-adv-x="1003" 
d="M6 989h166l330 -811l327 811h168l-495 -1190q-81 -197 -291 -200q-62 0 -113 14l25 139q37 -16 84 -16q54 0 88 22.5t59 81.5l66 150zM385 1139l303 295h160l-346 -295h-117z" />
    <glyph glyph-name="thorn" unicode="&#xfe;" 
d="M154 -377v1743h153v-524q56 78 144.5 125t189.5 47q197 0 318.5 -139.5t121.5 -378.5q0 -237 -121.5 -379t-318.5 -142q-101 0 -187.5 45.5t-146.5 129.5v-527h-153zM307 272q41 -67 124 -113t171 -46q146 0 232 107.5t86 275.5t-86 274.5t-232 106.5q-88 0 -171 -46
t-124 -112v-447z" />
    <glyph glyph-name="ydieresis" unicode="&#xff;" horiz-adv-x="1003" 
d="M6 989h166l330 -811l327 811h168l-495 -1190q-81 -197 -291 -200q-62 0 -113 14l25 139q37 -16 84 -16q54 0 88 22.5t59 81.5l66 150zM195 1237q0 38 28 66t68 28q38 0 66 -28t28 -66q0 -40 -28 -68t-66 -28q-40 0 -68 28t-28 68zM616 1237q0 38 29 66t68 28q38 0 67 -28
t29 -66q0 -39 -28.5 -67.5t-67.5 -28.5t-68 28.5t-29 67.5z" />
    <glyph glyph-name="OE" unicode="&#x152;" horiz-adv-x="2263" 
d="M104 682q0 200 82.5 360.5t234.5 252t347 91.5q150 0 282 -69.5t205 -198.5v248h897v-152h-727v-440h713v-151h-713v-471h727v-152h-897v246q-73 -130 -205 -200.5t-282 -70.5q-195 0 -347 92.5t-234.5 253.5t-82.5 361zM281 682q0 -159 60.5 -284.5t176.5 -198
t268 -72.5q161 0 285.5 85t183.5 245v450q-59 161 -183 244.5t-286 83.5q-230 0 -367.5 -155t-137.5 -398z" />
    <glyph glyph-name="oe" unicode="&#x153;" horiz-adv-x="1970" 
d="M96 496q0 144 59 261t171.5 187t259.5 70q87 0 160 -28.5t121.5 -75.5t78 -90t49.5 -89q15 35 36.5 70t58 75t79.5 69.5t103.5 49t128.5 19.5q146 0 255 -71t164.5 -190.5t55.5 -269.5v-39h-799q9 -146 105 -244t250 -98q87 0 167 32.5t140 92.5l73 -100
q-155 -152 -393 -152q-90 0 -165 27t-125.5 72.5t-82 89.5t-53.5 94q-17 -38 -37.5 -72t-56.5 -74.5t-77.5 -69t-103.5 -48t-132 -19.5q-147 0 -259.5 70.5t-171.5 188.5t-59 262zM256 496q0 -163 90 -274t240 -111t238.5 111t88.5 274q0 162 -88.5 271.5t-238.5 109.5
t-240 -110t-90 -271zM1075 557h651q-2 58 -22 114t-58 105.5t-102 80t-145 30.5q-76 0 -138 -30t-100.5 -78.5t-60.5 -105.5t-25 -116z" />
    <glyph glyph-name="Ydieresis" unicode="&#x178;" horiz-adv-x="1282" 
d="M18 1366h199l424 -635l424 635h199l-537 -788v-578h-170v578zM338 1579q0 38 28 66t68 28q38 0 66 -28t28 -66q0 -40 -28 -68t-66 -28q-40 0 -68 28t-28 68zM760 1579q0 38 29 66t67 28t67 -28t29 -66q0 -39 -28.5 -67.5t-67.5 -28.5t-67.5 28.5t-28.5 67.5z" />
    <glyph glyph-name="circumflex" unicode="&#x2c6;" horiz-adv-x="542" 
d="M0 1139l195 295h147l201 -295h-105l-170 217l-164 -217h-104z" />
    <glyph glyph-name="tilde" unicode="&#x2dc;" horiz-adv-x="641" 
d="M0 1147q0 123 52.5 198.5t146.5 75.5q29 0 52 -8t43.5 -28t29.5 -32t28 -40q38 -54 58 -67q19 -13 41 -13q44 0 71 44t27 132h92q0 -123 -52.5 -198.5t-146.5 -75.5q-29 0 -52.5 8.5t-43.5 27.5t-30.5 32t-28.5 40q-18 28 -28 40.5t-29 26t-40 13.5q-44 0 -71 -44
t-27 -132h-92z" />
    <glyph glyph-name="uni2000" unicode="&#x2000;" horiz-adv-x="908" 
 />
    <glyph glyph-name="uni2001" unicode="&#x2001;" horiz-adv-x="1817" 
 />
    <glyph glyph-name="uni2002" unicode="&#x2002;" horiz-adv-x="908" 
 />
    <glyph glyph-name="uni2003" unicode="&#x2003;" horiz-adv-x="1817" 
 />
    <glyph glyph-name="uni2004" unicode="&#x2004;" horiz-adv-x="605" 
 />
    <glyph glyph-name="uni2005" unicode="&#x2005;" horiz-adv-x="454" 
 />
    <glyph glyph-name="uni2006" unicode="&#x2006;" horiz-adv-x="302" 
 />
    <glyph glyph-name="uni2007" unicode="&#x2007;" horiz-adv-x="302" 
 />
    <glyph glyph-name="uni2008" unicode="&#x2008;" horiz-adv-x="227" 
 />
    <glyph glyph-name="uni2009" unicode="&#x2009;" horiz-adv-x="363" 
 />
    <glyph glyph-name="uni200A" unicode="&#x200a;" horiz-adv-x="100" 
 />
    <glyph glyph-name="uni2010" unicode="&#x2010;" horiz-adv-x="614" 
d="M61 428v135h492v-135h-492z" />
    <glyph glyph-name="uni2011" unicode="&#x2011;" horiz-adv-x="614" 
d="M61 428v135h492v-135h-492z" />
    <glyph glyph-name="figuredash" unicode="&#x2012;" horiz-adv-x="614" 
d="M61 428v135h492v-135h-492z" />
    <glyph glyph-name="endash" unicode="&#x2013;" horiz-adv-x="1214" 
d="M61 428v135h1092v-135h-1092z" />
    <glyph glyph-name="emdash" unicode="&#x2014;" horiz-adv-x="1705" 
d="M61 428v135h1584v-135h-1584z" />
    <glyph glyph-name="quoteleft" unicode="&#x2018;" horiz-adv-x="471" 
d="M96 1079q0 90 46.5 171.5t119.5 135.5l76 -61q-50 -32 -87.5 -86.5t-43.5 -103.5q1 0 11 1t15 1q43 0 72 -30t29 -75q0 -44 -32.5 -76t-76.5 -32q-54 0 -91.5 41.5t-37.5 113.5z" />
    <glyph glyph-name="quoteright" unicode="&#x2019;" horiz-adv-x="471" 
d="M117 985q50 33 88.5 87.5t44.5 103.5q-10 -5 -29 -5q-43 0 -70.5 29.5t-27.5 75.5q0 45 31.5 77.5t76.5 32.5q54 0 91.5 -41.5t37.5 -113.5q0 -90 -46.5 -173t-120.5 -136z" />
    <glyph glyph-name="quotesinglbase" unicode="&#x201a;" horiz-adv-x="471" 
d="M117 -197q51 33 89 87t44 104q-8 -4 -29 -4q-43 0 -70.5 29t-27.5 75q0 45 31.5 78t76.5 33q53 0 91 -42.5t38 -113.5q0 -90 -46.5 -173t-120.5 -136z" />
    <glyph glyph-name="quotedblleft" unicode="&#x201c;" horiz-adv-x="798" 
d="M111 1079q0 91 46 172.5t119 134.5l76 -61q-51 -33 -89 -87t-42 -103l11 1q10 1 16 1q43 0 70.5 -29.5t27.5 -75.5q0 -45 -31.5 -76.5t-76.5 -31.5q-54 0 -90.5 41.5t-36.5 113.5zM438 1079q0 90 46 172t120 135l76 -61q-50 -32 -87.5 -86.5t-43.5 -103.5l10 1q10 1 16 1
q43 0 72 -30t29 -75q0 -44 -32.5 -76t-78.5 -32q-54 0 -90.5 41.5t-36.5 113.5z" />
    <glyph glyph-name="quotedblright" unicode="&#x201d;" horiz-adv-x="798" 
d="M117 985q50 33 88.5 87.5t44.5 103.5q-10 -5 -29 -5q-43 0 -70.5 29.5t-27.5 75.5q0 45 31.5 77.5t76.5 32.5q54 0 91.5 -41.5t37.5 -113.5q0 -90 -46.5 -173t-120.5 -136zM446 985q50 33 88 87.5t44 103.5q-10 -5 -27 -5q-43 0 -71.5 29.5t-28.5 75.5q0 44 32 77t76 33
q54 0 91.5 -41.5t37.5 -113.5q0 -90 -46.5 -172.5t-119.5 -136.5z" />
    <glyph glyph-name="quotedblbase" unicode="&#x201e;" horiz-adv-x="798" 
d="M117 -197q51 33 89 87t44 104q-8 -4 -29 -4q-43 0 -70.5 29t-27.5 75q0 45 31.5 78t76.5 33q53 0 91 -42.5t38 -113.5q0 -90 -46.5 -173t-120.5 -136zM446 -197q50 33 88 87t44 104q-8 -4 -27 -4q-43 0 -71.5 29.5t-28.5 74.5t32 78t76 33q53 0 91 -42.5t38 -113.5
q0 -90 -46.5 -172.5t-119.5 -136.5z" />
    <glyph glyph-name="bullet" unicode="&#x2022;" horiz-adv-x="733" 
d="M147 496q0 91 65.5 156t156.5 65t156 -65t65 -156q0 -90 -65 -155t-156 -65t-156.5 65.5t-65.5 154.5z" />
    <glyph glyph-name="ellipsis" unicode="&#x2026;" horiz-adv-x="1413" 
d="M123 92q0 46 32.5 79.5t77.5 33.5q46 0 79.5 -33.5t33.5 -79.5q0 -44 -34 -78t-79 -34t-77.5 33.5t-32.5 78.5zM594 92q0 46 32.5 79.5t78.5 33.5t80 -33.5t34 -79.5q0 -44 -34 -78t-80 -34q-45 0 -78 33.5t-33 78.5zM1065 92q0 46 33.5 79.5t79.5 33.5t79 -33.5
t33 -79.5q0 -45 -33.5 -78.5t-78.5 -33.5q-46 0 -79.5 34t-33.5 78z" />
    <glyph glyph-name="uni202F" unicode="&#x202f;" horiz-adv-x="363" 
 />
    <glyph glyph-name="guilsinglleft" unicode="&#x2039;" horiz-adv-x="604" 
d="M61 498l328 362h154l-328 -362l328 -369h-154z" />
    <glyph glyph-name="guilsinglright" unicode="&#x203a;" horiz-adv-x="604" 
d="M61 129l328 369l-328 362h154l328 -362l-328 -369h-154z" />
    <glyph glyph-name="uni205F" unicode="&#x205f;" horiz-adv-x="454" 
 />
    <glyph glyph-name="Euro" unicode="&#x20ac;" horiz-adv-x="1423" 
d="M63 485v107h89q-5 72 -5 90q0 16 5 94h-89v107h109q61 230 246.5 368t431.5 138q326 0 518 -271l-143 -80q-60 89 -160.5 144t-214.5 55q-174 0 -307 -96t-189 -258h621v-107h-645q-6 -46 -6 -94q0 -46 6 -90h645v-107h-621q54 -163 188 -260.5t308 -97.5q115 0 215 54.5
t160 144.5l145 -80q-200 -271 -520 -271q-248 0 -433 138.5t-245 371.5h-109z" />
    <glyph glyph-name="trademark" unicode="&#x2122;" horiz-adv-x="929" 
d="M35 1313v53h311v-53h-127v-398h-57v398h-127zM420 915v451h88l131 -328l131 328h88v-451h-57v373l-154 -373h-16l-154 373v-373h-57z" />
    <glyph glyph-name="uni25FC" unicode="&#x25fc;" horiz-adv-x="993" 
d="M0 0v993h993v-993h-993z" />
    <hkern g1="questiondown"
	g2="j"
	k="-266" />
    <hkern g1="parenleft,bracketleft,braceleft"
	g2="j"
	k="-123" />
    <hkern g1="uni00B5"
	g2="T"
	k="174" />
    <hkern g1="uni00B5"
	g2="Y,Yacute,Ydieresis"
	k="184" />
    <hkern g1="uni00B5"
	g2="V"
	k="86" />
    <hkern g1="uni00B5"
	g2="W"
	k="61" />
    <hkern g1="uni00B5"
	g2="question"
	k="47" />
    <hkern g1="cent"
	g2="T"
	k="166" />
    <hkern g1="cent"
	g2="Y,Yacute,Ydieresis"
	k="129" />
    <hkern g1="cent"
	g2="V"
	k="74" />
    <hkern g1="cent"
	g2="W"
	k="47" />
    <hkern g1="cent"
	g2="question"
	k="47" />
    <hkern g1="cent"
	g2="quotedbl,quotesingle,registered,quoteleft,quoteright,quotedblleft,quotedblright,trademark"
	k="6" />
    <hkern g1="ampersand"
	g2="T"
	k="152" />
    <hkern g1="ampersand"
	g2="Y,Yacute,Ydieresis"
	k="186" />
    <hkern g1="ampersand"
	g2="V"
	k="102" />
    <hkern g1="ampersand"
	g2="W"
	k="98" />
    <hkern g1="asterisk"
	g2="J"
	k="238" />
    <hkern g1="asterisk"
	g2="A,Agrave,Aacute,Acircumflex,Atilde,Adieresis,Aring,AE"
	k="207" />
    <hkern g1="colon,semicolon"
	g2="T"
	k="102" />
    <hkern g1="colon,semicolon"
	g2="Y,Yacute,Ydieresis"
	k="121" />
    <hkern g1="hyphen,periodcentered,endash,emdash"
	g2="Y,Yacute,Ydieresis"
	k="223" />
    <hkern g1="hyphen,periodcentered,endash,emdash"
	g2="V"
	k="109" />
    <hkern g1="hyphen,periodcentered,endash,emdash"
	g2="W"
	k="68" />
    <hkern g1="hyphen,periodcentered,endash,emdash"
	g2="X"
	k="88" />
    <hkern g1="comma,period,quotesinglbase,quotedblbase,ellipsis"
	g2="j"
	k="-82" />
    <hkern g1="comma,period,quotesinglbase,quotedblbase,ellipsis"
	g2="y,yacute,ydieresis"
	k="117" />
    <hkern g1="comma,period,quotesinglbase,quotedblbase,ellipsis"
	g2="v"
	k="137" />
    <hkern g1="comma,period,quotesinglbase,quotedblbase,ellipsis"
	g2="w"
	k="90" />
    <hkern g1="comma,period,quotesinglbase,quotedblbase,ellipsis"
	g2="f,uniFB01,uniFB02,uniFB03,uniFB04"
	k="47" />
    <hkern g1="comma,period,quotesinglbase,quotedblbase,ellipsis"
	g2="T"
	k="190" />
    <hkern g1="comma,period,quotesinglbase,quotedblbase,ellipsis"
	g2="U,Ugrave,Uacute,Ucircumflex,Udieresis"
	k="61" />
    <hkern g1="comma,period,quotesinglbase,quotedblbase,ellipsis"
	g2="Y,Yacute,Ydieresis"
	k="184" />
    <hkern g1="comma,period,quotesinglbase,quotedblbase,ellipsis"
	g2="V"
	k="178" />
    <hkern g1="comma,period,quotesinglbase,quotedblbase,ellipsis"
	g2="W"
	k="137" />
    <hkern g1="comma,period,quotesinglbase,quotedblbase,ellipsis"
	g2="quotedbl,quotesingle,registered,quoteleft,quoteright,quotedblleft,quotedblright,trademark"
	k="156" />
    <hkern g1="comma,period,quotesinglbase,quotedblbase,ellipsis"
	g2="t"
	k="47" />
    <hkern g1="comma,period,quotesinglbase,quotedblbase,ellipsis"
	g2="cent"
	k="14" />
    <hkern g1="comma,period,quotesinglbase,quotedblbase,ellipsis"
	g2="c,d,e,g,o,q,ccedilla,egrave,eacute,ecircumflex,edieresis,eth,ograve,oacute,ocircumflex,otilde,odieresis,oslash,oe"
	k="14" />
    <hkern g1="comma,period,quotesinglbase,quotedblbase,ellipsis"
	g2="one"
	k="160" />
    <hkern g1="comma,period,quotesinglbase,quotedblbase,ellipsis"
	g2="seven"
	k="135" />
    <hkern g1="comma,period,quotesinglbase,quotedblbase,ellipsis"
	g2="zero,six"
	k="63" />
    <hkern g1="quotedbl,quotesingle,quoteleft,quoteright,quotedblleft,quotedblright"
	g2="C,G,O,Q,Ccedilla,Ograve,Oacute,Ocircumflex,Otilde,Odieresis,Oslash,OE"
	k="6" />
    <hkern g1="quotedbl,quotesingle,quoteleft,quoteright,quotedblleft,quotedblright"
	g2="J"
	k="188" />
    <hkern g1="quotedbl,quotesingle,quoteleft,quoteright,quotedblleft,quotedblright"
	g2="A,Agrave,Aacute,Acircumflex,Atilde,Adieresis,Aring,AE"
	k="213" />
    <hkern g1="quotedbl,quotesingle,quoteleft,quoteright,quotedblleft,quotedblright"
	g2="s"
	k="61" />
    <hkern g1="quotedbl,quotesingle,quoteleft,quoteright,quotedblleft,quotedblright"
	g2="comma,period,quotesinglbase,quotedblbase,ellipsis"
	k="156" />
    <hkern g1="seven"
	g2="comma,period,quotesinglbase,quotedblbase,ellipsis"
	k="199" />
    <hkern g1="zero,nine"
	g2="comma,period,quotesinglbase,quotedblbase,ellipsis"
	k="63" />
    <hkern g1="K"
	g2="uni00B5"
	k="41" />
    <hkern g1="K"
	g2="u,ugrave,uacute,ucircumflex,udieresis"
	k="41" />
    <hkern g1="K"
	g2="y,yacute,ydieresis"
	k="123" />
    <hkern g1="K"
	g2="v"
	k="123" />
    <hkern g1="K"
	g2="w"
	k="82" />
    <hkern g1="K"
	g2="x"
	k="53" />
    <hkern g1="K"
	g2="a,agrave,aacute,acircumflex,atilde,adieresis,aring,ae"
	k="35" />
    <hkern g1="K"
	g2="cent"
	k="70" />
    <hkern g1="K"
	g2="c,d,e,g,o,q,ccedilla,egrave,eacute,ecircumflex,edieresis,eth,ograve,oacute,ocircumflex,otilde,odieresis,oslash,oe"
	k="70" />
    <hkern g1="K"
	g2="f,uniFB01,uniFB02,uniFB03,uniFB04"
	k="53" />
    <hkern g1="K"
	g2="Y,Yacute,Ydieresis"
	k="43" />
    <hkern g1="K"
	g2="C,G,O,Q,Ccedilla,Ograve,Oacute,Ocircumflex,Otilde,Odieresis,Oslash,OE"
	k="111" />
    <hkern g1="K"
	g2="hyphen,periodcentered,endash,emdash"
	k="102" />
    <hkern g1="K"
	g2="t"
	k="80" />
    <hkern g1="D,O,Q,Eth,Ograve,Oacute,Ocircumflex,Otilde,Odieresis,Oslash,Thorn"
	g2="Y,Yacute,Ydieresis"
	k="82" />
    <hkern g1="D,O,Q,Eth,Ograve,Oacute,Ocircumflex,Otilde,Odieresis,Oslash,Thorn"
	g2="A,Agrave,Aacute,Acircumflex,Atilde,Adieresis,Aring,AE"
	k="76" />
    <hkern g1="D,O,Q,Eth,Ograve,Oacute,Ocircumflex,Otilde,Odieresis,Oslash,Thorn"
	g2="T"
	k="55" />
    <hkern g1="D,O,Q,Eth,Ograve,Oacute,Ocircumflex,Otilde,Odieresis,Oslash,Thorn"
	g2="X"
	k="61" />
    <hkern g1="D,O,Q,Eth,Ograve,Oacute,Ocircumflex,Otilde,Odieresis,Oslash,Thorn"
	g2="Z"
	k="35" />
    <hkern g1="D,O,Q,Eth,Ograve,Oacute,Ocircumflex,Otilde,Odieresis,Oslash,Thorn"
	g2="J"
	k="41" />
    <hkern g1="D,O,Q,Eth,Ograve,Oacute,Ocircumflex,Otilde,Odieresis,Oslash,Thorn"
	g2="V"
	k="41" />
    <hkern g1="D,O,Q,Eth,Ograve,Oacute,Ocircumflex,Otilde,Odieresis,Oslash,Thorn"
	g2="W"
	k="41" />
    <hkern g1="D,O,Q,Eth,Ograve,Oacute,Ocircumflex,Otilde,Odieresis,Oslash,Thorn"
	g2="comma,period,quotesinglbase,quotedblbase,ellipsis"
	k="55" />
    <hkern g1="D,O,Q,Eth,Ograve,Oacute,Ocircumflex,Otilde,Odieresis,Oslash,Thorn"
	g2="question"
	k="33" />
    <hkern g1="D,O,Q,Eth,Ograve,Oacute,Ocircumflex,Otilde,Odieresis,Oslash,Thorn"
	g2="quotedbl,quotesingle,registered,quoteleft,quoteright,quotedblleft,quotedblright,trademark"
	k="20" />
    <hkern g1="A,Agrave,Aacute,Acircumflex,Atilde,Adieresis,Aring"
	g2="uni00B5"
	k="25" />
    <hkern g1="A,Agrave,Aacute,Acircumflex,Atilde,Adieresis,Aring"
	g2="u,ugrave,uacute,ucircumflex,udieresis"
	k="25" />
    <hkern g1="A,Agrave,Aacute,Acircumflex,Atilde,Adieresis,Aring"
	g2="y,yacute,ydieresis"
	k="41" />
    <hkern g1="A,Agrave,Aacute,Acircumflex,Atilde,Adieresis,Aring"
	g2="v"
	k="41" />
    <hkern g1="A,Agrave,Aacute,Acircumflex,Atilde,Adieresis,Aring"
	g2="w"
	k="35" />
    <hkern g1="A,Agrave,Aacute,Acircumflex,Atilde,Adieresis,Aring"
	g2="f,uniFB01,uniFB02,uniFB03,uniFB04"
	k="18" />
    <hkern g1="A,Agrave,Aacute,Acircumflex,Atilde,Adieresis,Aring"
	g2="Y,Yacute,Ydieresis"
	k="129" />
    <hkern g1="A,Agrave,Aacute,Acircumflex,Atilde,Adieresis,Aring"
	g2="C,G,O,Q,Ccedilla,Ograve,Oacute,Ocircumflex,Otilde,Odieresis,Oslash,OE"
	k="76" />
    <hkern g1="A,Agrave,Aacute,Acircumflex,Atilde,Adieresis,Aring"
	g2="t"
	k="23" />
    <hkern g1="A,Agrave,Aacute,Acircumflex,Atilde,Adieresis,Aring"
	g2="T"
	k="137" />
    <hkern g1="A,Agrave,Aacute,Acircumflex,Atilde,Adieresis,Aring"
	g2="J"
	k="-18" />
    <hkern g1="A,Agrave,Aacute,Acircumflex,Atilde,Adieresis,Aring"
	g2="V"
	k="111" />
    <hkern g1="A,Agrave,Aacute,Acircumflex,Atilde,Adieresis,Aring"
	g2="W"
	k="96" />
    <hkern g1="A,Agrave,Aacute,Acircumflex,Atilde,Adieresis,Aring"
	g2="question"
	k="158" />
    <hkern g1="A,Agrave,Aacute,Acircumflex,Atilde,Adieresis,Aring"
	g2="quotedbl,quotesingle,registered,quoteleft,quoteright,quotedblleft,quotedblright,trademark"
	k="199" />
    <hkern g1="A,Agrave,Aacute,Acircumflex,Atilde,Adieresis,Aring"
	g2="S"
	k="29" />
    <hkern g1="A,Agrave,Aacute,Acircumflex,Atilde,Adieresis,Aring"
	g2="U,Ugrave,Uacute,Ucircumflex,Udieresis"
	k="53" />
    <hkern g1="A,Agrave,Aacute,Acircumflex,Atilde,Adieresis,Aring"
	g2="asterisk"
	k="207" />
    <hkern g1="B"
	g2="Y,Yacute,Ydieresis"
	k="61" />
    <hkern g1="B"
	g2="T"
	k="35" />
    <hkern g1="B"
	g2="V"
	k="27" />
    <hkern g1="B"
	g2="W"
	k="20" />
    <hkern g1="B"
	g2="quotedbl,quotesingle,registered,quoteleft,quoteright,quotedblleft,quotedblright,trademark"
	k="20" />
    <hkern g1="C,Ccedilla"
	g2="Y,Yacute,Ydieresis"
	k="33" />
    <hkern g1="C,Ccedilla"
	g2="A,Agrave,Aacute,Acircumflex,Atilde,Adieresis,Aring,AE"
	k="6" />
    <hkern g1="C,Ccedilla"
	g2="V"
	k="4" />
    <hkern g1="C,Ccedilla"
	g2="W"
	k="6" />
    <hkern g1="C,Ccedilla"
	g2="question"
	k="6" />
    <hkern g1="x"
	g2="cent"
	k="76" />
    <hkern g1="x"
	g2="c,d,e,g,o,q,ccedilla,egrave,eacute,ecircumflex,edieresis,eth,ograve,oacute,ocircumflex,otilde,odieresis,oslash,oe"
	k="76" />
    <hkern g1="x"
	g2="Y,Yacute,Ydieresis"
	k="150" />
    <hkern g1="x"
	g2="T"
	k="135" />
    <hkern g1="x"
	g2="V"
	k="47" />
    <hkern g1="x"
	g2="W"
	k="47" />
    <hkern g1="y,yacute,ydieresis"
	g2="Y,Yacute,Ydieresis"
	k="123" />
    <hkern g1="y,yacute,ydieresis"
	g2="A,Agrave,Aacute,Acircumflex,Atilde,Adieresis,Aring,AE"
	k="41" />
    <hkern g1="y,yacute,ydieresis"
	g2="T"
	k="115" />
    <hkern g1="y,yacute,ydieresis"
	g2="X"
	k="76" />
    <hkern g1="y,yacute,ydieresis"
	g2="V"
	k="12" />
    <hkern g1="y,yacute,ydieresis"
	g2="W"
	k="6" />
    <hkern g1="y,yacute,ydieresis"
	g2="comma,period,quotesinglbase,quotedblbase,ellipsis"
	k="117" />
    <hkern g1="y,yacute,ydieresis"
	g2="question"
	k="6" />
    <hkern g1="u,z,ugrave,uacute,ucircumflex,udieresis"
	g2="Y,Yacute,Ydieresis"
	k="184" />
    <hkern g1="u,z,ugrave,uacute,ucircumflex,udieresis"
	g2="T"
	k="174" />
    <hkern g1="u,z,ugrave,uacute,ucircumflex,udieresis"
	g2="V"
	k="86" />
    <hkern g1="u,z,ugrave,uacute,ucircumflex,udieresis"
	g2="W"
	k="61" />
    <hkern g1="u,z,ugrave,uacute,ucircumflex,udieresis"
	g2="question"
	k="47" />
    <hkern g1="v"
	g2="Y,Yacute,Ydieresis"
	k="123" />
    <hkern g1="v"
	g2="A,Agrave,Aacute,Acircumflex,Atilde,Adieresis,Aring,AE"
	k="41" />
    <hkern g1="v"
	g2="T"
	k="115" />
    <hkern g1="v"
	g2="X"
	k="76" />
    <hkern g1="v"
	g2="V"
	k="27" />
    <hkern g1="v"
	g2="W"
	k="6" />
    <hkern g1="v"
	g2="comma,period,quotesinglbase,quotedblbase,ellipsis"
	k="137" />
    <hkern g1="k"
	g2="cent"
	k="6" />
    <hkern g1="k"
	g2="c,d,e,g,o,q,ccedilla,egrave,eacute,ecircumflex,edieresis,eth,ograve,oacute,ocircumflex,otilde,odieresis,oslash,oe"
	k="6" />
    <hkern g1="k"
	g2="Y,Yacute,Ydieresis"
	k="135" />
    <hkern g1="k"
	g2="hyphen,periodcentered,endash,emdash"
	k="55" />
    <hkern g1="k"
	g2="T"
	k="141" />
    <hkern g1="k"
	g2="V"
	k="47" />
    <hkern g1="k"
	g2="W"
	k="47" />
    <hkern g1="k"
	g2="bullet"
	k="55" />
    <hkern g1="e,ae,egrave,eacute,ecircumflex,edieresis,oe"
	g2="Y,Yacute,Ydieresis"
	k="225" />
    <hkern g1="e,ae,egrave,eacute,ecircumflex,edieresis,oe"
	g2="T"
	k="207" />
    <hkern g1="e,ae,egrave,eacute,ecircumflex,edieresis,oe"
	g2="V"
	k="109" />
    <hkern g1="e,ae,egrave,eacute,ecircumflex,edieresis,oe"
	g2="W"
	k="82" />
    <hkern g1="e,ae,egrave,eacute,ecircumflex,edieresis,oe"
	g2="comma,period,quotesinglbase,quotedblbase,ellipsis"
	k="14" />
    <hkern g1="e,ae,egrave,eacute,ecircumflex,edieresis,oe"
	g2="question"
	k="74" />
    <hkern g1="e,ae,egrave,eacute,ecircumflex,edieresis,oe"
	g2="quotedbl,quotesingle,registered,quoteleft,quoteright,quotedblleft,quotedblright,trademark"
	k="6" />
    <hkern g1="e,ae,egrave,eacute,ecircumflex,edieresis,oe"
	g2="asterisk"
	k="35" />
    <hkern g1="g,j,q"
	g2="Y,Yacute,Ydieresis"
	k="184" />
    <hkern g1="g,j,q"
	g2="T"
	k="174" />
    <hkern g1="g,j,q"
	g2="V"
	k="86" />
    <hkern g1="g,j,q"
	g2="W"
	k="61" />
    <hkern g1="g,j,q"
	g2="question"
	k="47" />
    <hkern g1="a,h,m,n,agrave,aacute,acircumflex,atilde,adieresis,aring,ntilde"
	g2="Y,Yacute,Ydieresis"
	k="225" />
    <hkern g1="a,h,m,n,agrave,aacute,acircumflex,atilde,adieresis,aring,ntilde"
	g2="T"
	k="221" />
    <hkern g1="a,h,m,n,agrave,aacute,acircumflex,atilde,adieresis,aring,ntilde"
	g2="V"
	k="135" />
    <hkern g1="a,h,m,n,agrave,aacute,acircumflex,atilde,adieresis,aring,ntilde"
	g2="W"
	k="88" />
    <hkern g1="a,h,m,n,agrave,aacute,acircumflex,atilde,adieresis,aring,ntilde"
	g2="question"
	k="74" />
    <hkern g1="a,h,m,n,agrave,aacute,acircumflex,atilde,adieresis,aring,ntilde"
	g2="quotedbl,quotesingle,registered,quoteleft,quoteright,quotedblleft,quotedblright,trademark"
	k="12" />
    <hkern g1="b,o,p,ograve,oacute,ocircumflex,otilde,odieresis,oslash,thorn"
	g2="x"
	k="76" />
    <hkern g1="b,o,p,ograve,oacute,ocircumflex,otilde,odieresis,oslash,thorn"
	g2="Y,Yacute,Ydieresis"
	k="254" />
    <hkern g1="b,o,p,ograve,oacute,ocircumflex,otilde,odieresis,oslash,thorn"
	g2="T"
	k="236" />
    <hkern g1="b,o,p,ograve,oacute,ocircumflex,otilde,odieresis,oslash,thorn"
	g2="V"
	k="123" />
    <hkern g1="b,o,p,ograve,oacute,ocircumflex,otilde,odieresis,oslash,thorn"
	g2="W"
	k="82" />
    <hkern g1="b,o,p,ograve,oacute,ocircumflex,otilde,odieresis,oslash,thorn"
	g2="comma,period,quotesinglbase,quotedblbase,ellipsis"
	k="14" />
    <hkern g1="b,o,p,ograve,oacute,ocircumflex,otilde,odieresis,oslash,thorn"
	g2="question"
	k="94" />
    <hkern g1="b,o,p,ograve,oacute,ocircumflex,otilde,odieresis,oslash,thorn"
	g2="quotedbl,quotesingle,registered,quoteleft,quoteright,quotedblleft,quotedblright,trademark"
	k="20" />
    <hkern g1="c,ccedilla"
	g2="Y,Yacute,Ydieresis"
	k="129" />
    <hkern g1="c,ccedilla"
	g2="T"
	k="166" />
    <hkern g1="c,ccedilla"
	g2="V"
	k="74" />
    <hkern g1="c,ccedilla"
	g2="W"
	k="47" />
    <hkern g1="c,ccedilla"
	g2="question"
	k="47" />
    <hkern g1="c,ccedilla"
	g2="quotedbl,quotesingle,registered,quoteleft,quoteright,quotedblleft,quotedblright,trademark"
	k="6" />
    <hkern g1="J,U,Ugrave,Uacute,Ucircumflex,Udieresis"
	g2="A,Agrave,Aacute,Acircumflex,Atilde,Adieresis,Aring,AE"
	k="53" />
    <hkern g1="J,U,Ugrave,Uacute,Ucircumflex,Udieresis"
	g2="J"
	k="25" />
    <hkern g1="J,U,Ugrave,Uacute,Ucircumflex,Udieresis"
	g2="comma,period,quotesinglbase,quotedblbase,ellipsis"
	k="61" />
    <hkern g1="P"
	g2="a,agrave,aacute,acircumflex,atilde,adieresis,aring,ae"
	k="41" />
    <hkern g1="P"
	g2="cent"
	k="27" />
    <hkern g1="P"
	g2="c,d,e,g,o,q,ccedilla,egrave,eacute,ecircumflex,edieresis,eth,ograve,oacute,ocircumflex,otilde,odieresis,oslash,oe"
	k="27" />
    <hkern g1="P"
	g2="Y,Yacute,Ydieresis"
	k="6" />
    <hkern g1="P"
	g2="hyphen,periodcentered,endash,emdash"
	k="70" />
    <hkern g1="P"
	g2="A,Agrave,Aacute,Acircumflex,Atilde,Adieresis,Aring,AE"
	k="158" />
    <hkern g1="P"
	g2="X"
	k="18" />
    <hkern g1="P"
	g2="J"
	k="223" />
    <hkern g1="P"
	g2="comma,period,quotesinglbase,quotedblbase,ellipsis"
	k="193" />
    <hkern g1="P"
	g2="ampersand"
	k="53" />
    <hkern g1="X"
	g2="y,yacute,ydieresis"
	k="76" />
    <hkern g1="X"
	g2="v"
	k="76" />
    <hkern g1="X"
	g2="w"
	k="90" />
    <hkern g1="X"
	g2="f,uniFB01,uniFB02,uniFB03,uniFB04"
	k="61" />
    <hkern g1="X"
	g2="C,G,O,Q,Ccedilla,Ograve,Oacute,Ocircumflex,Otilde,Odieresis,Oslash,OE"
	k="61" />
    <hkern g1="X"
	g2="hyphen,periodcentered,endash,emdash"
	k="88" />
    <hkern g1="X"
	g2="t"
	k="61" />
    <hkern g1="Y,Yacute,Ydieresis"
	g2="uni00B5"
	k="184" />
    <hkern g1="Y,Yacute,Ydieresis"
	g2="u,ugrave,uacute,ucircumflex,udieresis"
	k="184" />
    <hkern g1="Y,Yacute,Ydieresis"
	g2="y,yacute,ydieresis"
	k="123" />
    <hkern g1="Y,Yacute,Ydieresis"
	g2="v"
	k="123" />
    <hkern g1="Y,Yacute,Ydieresis"
	g2="w"
	k="123" />
    <hkern g1="Y,Yacute,Ydieresis"
	g2="x"
	k="150" />
    <hkern g1="Y,Yacute,Ydieresis"
	g2="a,agrave,aacute,acircumflex,atilde,adieresis,aring,ae"
	k="248" />
    <hkern g1="Y,Yacute,Ydieresis"
	g2="cent"
	k="260" />
    <hkern g1="Y,Yacute,Ydieresis"
	g2="c,d,e,g,o,q,ccedilla,egrave,eacute,ecircumflex,edieresis,eth,ograve,oacute,ocircumflex,otilde,odieresis,oslash,oe"
	k="260" />
    <hkern g1="Y,Yacute,Ydieresis"
	g2="f,uniFB01,uniFB02,uniFB03,uniFB04"
	k="100" />
    <hkern g1="Y,Yacute,Ydieresis"
	g2="C,G,O,Q,Ccedilla,Ograve,Oacute,Ocircumflex,Otilde,Odieresis,Oslash,OE"
	k="82" />
    <hkern g1="Y,Yacute,Ydieresis"
	g2="hyphen,periodcentered,endash,emdash"
	k="238" />
    <hkern g1="Y,Yacute,Ydieresis"
	g2="t"
	k="53" />
    <hkern g1="Y,Yacute,Ydieresis"
	g2="A,Agrave,Aacute,Acircumflex,Atilde,Adieresis,Aring,AE"
	k="129" />
    <hkern g1="Y,Yacute,Ydieresis"
	g2="J"
	k="231" />
    <hkern g1="Y,Yacute,Ydieresis"
	g2="comma,period,quotesinglbase,quotedblbase,ellipsis"
	k="184" />
    <hkern g1="Y,Yacute,Ydieresis"
	g2="S"
	k="41" />
    <hkern g1="Y,Yacute,Ydieresis"
	g2="ampersand"
	k="123" />
    <hkern g1="Y,Yacute,Ydieresis"
	g2="s"
	k="205" />
    <hkern g1="Y,Yacute,Ydieresis"
	g2="m,n,p,r,z,ntilde"
	k="184" />
    <hkern g1="Y,Yacute,Ydieresis"
	g2="colon,semicolon"
	k="121" />
    <hkern g1="Z"
	g2="C,G,O,Q,Ccedilla,Ograve,Oacute,Ocircumflex,Otilde,Odieresis,Oslash,OE"
	k="35" />
    <hkern g1="T"
	g2="uni00B5"
	k="174" />
    <hkern g1="T"
	g2="u,ugrave,uacute,ucircumflex,udieresis"
	k="174" />
    <hkern g1="T"
	g2="y,yacute,ydieresis"
	k="115" />
    <hkern g1="T"
	g2="v"
	k="115" />
    <hkern g1="T"
	g2="w"
	k="115" />
    <hkern g1="T"
	g2="x"
	k="135" />
    <hkern g1="T"
	g2="a,agrave,aacute,acircumflex,atilde,adieresis,aring,ae"
	k="195" />
    <hkern g1="T"
	g2="cent"
	k="236" />
    <hkern g1="T"
	g2="c,d,e,g,o,q,ccedilla,egrave,eacute,ecircumflex,edieresis,eth,ograve,oacute,ocircumflex,otilde,odieresis,oslash,oe"
	k="236" />
    <hkern g1="T"
	g2="f,uniFB01,uniFB02,uniFB03,uniFB04"
	k="63" />
    <hkern g1="T"
	g2="C,G,O,Q,Ccedilla,Ograve,Oacute,Ocircumflex,Otilde,Odieresis,Oslash,OE"
	k="55" />
    <hkern g1="T"
	g2="hyphen,periodcentered,endash,emdash"
	k="123" />
    <hkern g1="T"
	g2="A,Agrave,Aacute,Acircumflex,Atilde,Adieresis,Aring,AE"
	k="137" />
    <hkern g1="T"
	g2="J"
	k="170" />
    <hkern g1="T"
	g2="comma,period,quotesinglbase,quotedblbase,ellipsis"
	k="190" />
    <hkern g1="T"
	g2="S"
	k="6" />
    <hkern g1="T"
	g2="ampersand"
	k="117" />
    <hkern g1="T"
	g2="s"
	k="186" />
    <hkern g1="T"
	g2="m,n,p,r,z,ntilde"
	k="174" />
    <hkern g1="T"
	g2="colon,semicolon"
	k="102" />
    <hkern g1="V"
	g2="uni00B5"
	k="86" />
    <hkern g1="V"
	g2="u,ugrave,uacute,ucircumflex,udieresis"
	k="86" />
    <hkern g1="V"
	g2="y,yacute,ydieresis"
	k="12" />
    <hkern g1="V"
	g2="v"
	k="27" />
    <hkern g1="V"
	g2="w"
	k="12" />
    <hkern g1="V"
	g2="x"
	k="47" />
    <hkern g1="V"
	g2="a,agrave,aacute,acircumflex,atilde,adieresis,aring,ae"
	k="129" />
    <hkern g1="V"
	g2="cent"
	k="123" />
    <hkern g1="V"
	g2="c,d,e,g,o,q,ccedilla,egrave,eacute,ecircumflex,edieresis,eth,ograve,oacute,ocircumflex,otilde,odieresis,oslash,oe"
	k="123" />
    <hkern g1="V"
	g2="f,uniFB01,uniFB02,uniFB03,uniFB04"
	k="47" />
    <hkern g1="V"
	g2="C,G,O,Q,Ccedilla,Ograve,Oacute,Ocircumflex,Otilde,Odieresis,Oslash,OE"
	k="41" />
    <hkern g1="V"
	g2="hyphen,periodcentered,endash,emdash"
	k="109" />
    <hkern g1="V"
	g2="t"
	k="27" />
    <hkern g1="V"
	g2="A,Agrave,Aacute,Acircumflex,Atilde,Adieresis,Aring,AE"
	k="111" />
    <hkern g1="V"
	g2="J"
	k="190" />
    <hkern g1="V"
	g2="comma,period,quotesinglbase,quotedblbase,ellipsis"
	k="184" />
    <hkern g1="V"
	g2="ampersand"
	k="59" />
    <hkern g1="V"
	g2="s"
	k="80" />
    <hkern g1="V"
	g2="m,n,p,r,z,ntilde"
	k="86" />
    <hkern g1="F"
	g2="A,Agrave,Aacute,Acircumflex,Atilde,Adieresis,Aring,AE"
	k="74" />
    <hkern g1="F"
	g2="J"
	k="121" />
    <hkern g1="F"
	g2="comma,period,quotesinglbase,quotedblbase,ellipsis"
	k="102" />
    <hkern g1="F"
	g2="ampersand"
	k="12" />
    <hkern g1="G"
	g2="Y,Yacute,Ydieresis"
	k="18" />
    <hkern g1="G"
	g2="A,Agrave,Aacute,Acircumflex,Atilde,Adieresis,Aring,AE"
	k="6" />
    <hkern g1="G"
	g2="T"
	k="6" />
    <hkern g1="G"
	g2="X"
	k="6" />
    <hkern g1="G"
	g2="V"
	k="12" />
    <hkern g1="G"
	g2="W"
	k="6" />
    <hkern g1="G"
	g2="question"
	k="12" />
    <hkern g1="L"
	g2="uni00B5"
	k="29" />
    <hkern g1="L"
	g2="u,ugrave,uacute,ucircumflex,udieresis"
	k="29" />
    <hkern g1="L"
	g2="y,yacute,ydieresis"
	k="117" />
    <hkern g1="L"
	g2="v"
	k="117" />
    <hkern g1="L"
	g2="w"
	k="76" />
    <hkern g1="L"
	g2="a,agrave,aacute,acircumflex,atilde,adieresis,aring,ae"
	k="29" />
    <hkern g1="L"
	g2="cent"
	k="43" />
    <hkern g1="L"
	g2="c,d,e,g,o,q,ccedilla,egrave,eacute,ecircumflex,edieresis,eth,ograve,oacute,ocircumflex,otilde,odieresis,oslash,oe"
	k="43" />
    <hkern g1="L"
	g2="Y,Yacute,Ydieresis"
	k="252" />
    <hkern g1="L"
	g2="C,G,O,Q,Ccedilla,Ograve,Oacute,Ocircumflex,Otilde,Odieresis,Oslash,OE"
	k="70" />
    <hkern g1="L"
	g2="t"
	k="68" />
    <hkern g1="L"
	g2="T"
	k="205" />
    <hkern g1="L"
	g2="V"
	k="184" />
    <hkern g1="L"
	g2="W"
	k="135" />
    <hkern g1="L"
	g2="question"
	k="233" />
    <hkern g1="L"
	g2="quotedbl,quotesingle,registered,quoteleft,quoteright,quotedblleft,quotedblright,trademark"
	k="250" />
    <hkern g1="L"
	g2="U,Ugrave,Uacute,Ucircumflex,Udieresis"
	k="55" />
    <hkern g1="L"
	g2="asterisk"
	k="356" />
    <hkern g1="L"
	g2="ampersand"
	k="14" />
    <hkern g1="R"
	g2="a,agrave,aacute,acircumflex,atilde,adieresis,aring,ae"
	k="41" />
    <hkern g1="R"
	g2="cent"
	k="61" />
    <hkern g1="R"
	g2="c,d,e,g,o,q,ccedilla,egrave,eacute,ecircumflex,edieresis,eth,ograve,oacute,ocircumflex,otilde,odieresis,oslash,oe"
	k="61" />
    <hkern g1="R"
	g2="Y,Yacute,Ydieresis"
	k="33" />
    <hkern g1="R"
	g2="T"
	k="20" />
    <hkern g1="R"
	g2="V"
	k="20" />
    <hkern g1="R"
	g2="quotedbl,quotesingle,registered,quoteleft,quoteright,quotedblleft,quotedblright,trademark"
	k="6" />
    <hkern g1="R"
	g2="ampersand"
	k="6" />
    <hkern g1="R"
	g2="s"
	k="12" />
    <hkern g1="W"
	g2="uni00B5"
	k="61" />
    <hkern g1="W"
	g2="u,ugrave,uacute,ucircumflex,udieresis"
	k="61" />
    <hkern g1="W"
	g2="y,yacute,ydieresis"
	k="6" />
    <hkern g1="W"
	g2="v"
	k="6" />
    <hkern g1="W"
	g2="x"
	k="47" />
    <hkern g1="W"
	g2="a,agrave,aacute,acircumflex,atilde,adieresis,aring,ae"
	k="82" />
    <hkern g1="W"
	g2="cent"
	k="82" />
    <hkern g1="W"
	g2="c,d,e,g,o,q,ccedilla,egrave,eacute,ecircumflex,edieresis,eth,ograve,oacute,ocircumflex,otilde,odieresis,oslash,oe"
	k="82" />
    <hkern g1="W"
	g2="f,uniFB01,uniFB02,uniFB03,uniFB04"
	k="27" />
    <hkern g1="W"
	g2="C,G,O,Q,Ccedilla,Ograve,Oacute,Ocircumflex,Otilde,Odieresis,Oslash,OE"
	k="41" />
    <hkern g1="W"
	g2="hyphen,periodcentered,endash,emdash"
	k="68" />
    <hkern g1="W"
	g2="t"
	k="27" />
    <hkern g1="W"
	g2="A,Agrave,Aacute,Acircumflex,Atilde,Adieresis,Aring,AE"
	k="96" />
    <hkern g1="W"
	g2="J"
	k="78" />
    <hkern g1="W"
	g2="comma,period,quotesinglbase,quotedblbase,ellipsis"
	k="137" />
    <hkern g1="W"
	g2="ampersand"
	k="41" />
    <hkern g1="W"
	g2="s"
	k="39" />
    <hkern g1="W"
	g2="m,n,p,r,z,ntilde"
	k="61" />
    <hkern g1="eth"
	g2="comma,period,quotesinglbase,quotedblbase,ellipsis"
	k="14" />
    <hkern g1="f"
	g2="Y,Yacute,Ydieresis"
	k="-53" />
    <hkern g1="f"
	g2="T"
	k="-41" />
    <hkern g1="f"
	g2="X"
	k="-20" />
    <hkern g1="f"
	g2="V"
	k="-68" />
    <hkern g1="f"
	g2="W"
	k="-68" />
    <hkern g1="f"
	g2="comma,period,quotesinglbase,quotedblbase,ellipsis"
	k="88" />
    <hkern g1="f"
	g2="question"
	k="-82" />
    <hkern g1="f"
	g2="quotedbl,quotesingle,registered,quoteleft,quoteright,quotedblleft,quotedblright,trademark"
	k="-96" />
    <hkern g1="f"
	g2="asterisk"
	k="-96" />
    <hkern g1="f"
	g2="ampersand"
	k="6" />
    <hkern g1="f"
	g2="parenright,bracketright,braceright"
	k="-82" />
    <hkern g1="r"
	g2="Y,Yacute,Ydieresis"
	k="102" />
    <hkern g1="r"
	g2="T"
	k="98" />
    <hkern g1="r"
	g2="X"
	k="18" />
    <hkern g1="r"
	g2="V"
	k="47" />
    <hkern g1="r"
	g2="W"
	k="12" />
    <hkern g1="r"
	g2="comma,period,quotesinglbase,quotedblbase,ellipsis"
	k="170" />
    <hkern g1="t"
	g2="Y,Yacute,Ydieresis"
	k="68" />
    <hkern g1="t"
	g2="T"
	k="106" />
    <hkern g1="t"
	g2="V"
	k="53" />
    <hkern g1="t"
	g2="W"
	k="27" />
    <hkern g1="w"
	g2="Y,Yacute,Ydieresis"
	k="123" />
    <hkern g1="w"
	g2="A,Agrave,Aacute,Acircumflex,Atilde,Adieresis,Aring,AE"
	k="35" />
    <hkern g1="w"
	g2="T"
	k="115" />
    <hkern g1="w"
	g2="X"
	k="90" />
    <hkern g1="w"
	g2="V"
	k="12" />
    <hkern g1="w"
	g2="comma,period,quotesinglbase,quotedblbase,ellipsis"
	k="90" />
  </font>
</defs></svg>
